%!PS-Adobe-2.0 EPSF-2.0
%%Title: /home/anthony/Projects/dissertation/mainmatter/chapter04/figures/dia/short/MainWindow-final.dia
%%Creator: Dia v0.97.3
%%CreationDate: Wed May 25 20:02:03 2016
%%For: anthony
%%Orientation: Portrait
%%Magnification: 1.0000
%%BoundingBox: 0 0 520 939
%%BeginSetup
%%EndSetup
%%EndComments
%%BeginProlog
[ /.notdef /.notdef /.notdef /.notdef /.notdef /.notdef /.notdef /.notdef /.notdef /.notdef
/.notdef /.notdef /.notdef /.notdef /.notdef /.notdef /.notdef /.notdef /.notdef /.notdef
/.notdef /.notdef /.notdef /.notdef /.notdef /.notdef /.notdef /.notdef /.notdef /.notdef
/.notdef /.notdef /space /exclam /quotedbl /numbersign /dollar /percent /ampersand /quoteright
/parenleft /parenright /asterisk /plus /comma /hyphen /period /slash /zero /one
/two /three /four /five /six /seven /eight /nine /colon /semicolon
/less /equal /greater /question /at /A /B /C /D /E
/F /G /H /I /J /K /L /M /N /O
/P /Q /R /S /T /U /V /W /X /Y
/Z /bracketleft /backslash /bracketright /asciicircum /underscore /quoteleft /a /b /c
/d /e /f /g /h /i /j /k /l /m
/n /o /p /q /r /s /t /u /v /w
/x /y /z /braceleft /bar /braceright /asciitilde /.notdef /.notdef /.notdef
/.notdef /.notdef /.notdef /.notdef /.notdef /.notdef /.notdef /.notdef /.notdef /.notdef
/.notdef /.notdef /.notdef /.notdef /.notdef /.notdef /.notdef /.notdef /.notdef /.notdef
/.notdef /.notdef /.notdef /.notdef /.notdef /.notdef /.notdef /.notdef /.notdef /.notdef
/space /exclamdown /cent /sterling /currency /yen /brokenbar /section /dieresis /copyright
/ordfeminine /guillemotleft /logicalnot /hyphen /registered /macron /degree /plusminus /twosuperior /threesuperior
/acute /mu /paragraph /periodcentered /cedilla /onesuperior /ordmasculine /guillemotright /onequarter /onehalf
/threequarters /questiondown /Agrave /Aacute /Acircumflex /Atilde /Adieresis /Aring /AE /Ccedilla
/Egrave /Eacute /Ecircumflex /Edieresis /Igrave /Iacute /Icircumflex /Idieresis /Eth /Ntilde
/Ograve /Oacute /Ocircumflex /Otilde /Odieresis /multiply /Oslash /Ugrave /Uacute /Ucircumflex
/Udieresis /Yacute /Thorn /germandbls /agrave /aacute /acircumflex /atilde /adieresis /aring
/ae /ccedilla /egrave /eacute /ecircumflex /edieresis /igrave /iacute /icircumflex /idieresis
/eth /ntilde /ograve /oacute /ocircumflex /otilde /odieresis /divide /oslash /ugrave
/uacute /ucircumflex /udieresis /yacute /thorn /ydieresis] /isolatin1encoding exch def
/cp {closepath} bind def
/c {curveto} bind def
/f {fill} bind def
/a {arc} bind def
/ef {eofill} bind def
/ex {exch} bind def
/gr {grestore} bind def
/gs {gsave} bind def
/sa {save} bind def
/rs {restore} bind def
/l {lineto} bind def
/m {moveto} bind def
/rm {rmoveto} bind def
/n {newpath} bind def
/s {stroke} bind def
/sh {show} bind def
/slc {setlinecap} bind def
/slj {setlinejoin} bind def
/slw {setlinewidth} bind def
/srgb {setrgbcolor} bind def
/rot {rotate} bind def
/sc {scale} bind def
/sd {setdash} bind def
/ff {findfont} bind def
/sf {setfont} bind def
/scf {scalefont} bind def
/sw {stringwidth pop} bind def
/tr {translate} bind def

/ellipsedict 8 dict def
ellipsedict /mtrx matrix put
/ellipse
{ ellipsedict begin
   /endangle exch def
   /startangle exch def
   /yrad exch def
   /xrad exch def
   /y exch def
   /x exch def   /savematrix mtrx currentmatrix def
   x y tr xrad yrad sc
   0 0 1 startangle endangle arc
   savematrix setmatrix
   end
} def

/mergeprocs {
dup length
3 -1 roll
dup
length
dup
5 1 roll
3 -1 roll
add
array cvx
dup
3 -1 roll
0 exch
putinterval
dup
4 2 roll
putinterval
} bind def
/Times-Roman-latin1
    /Times-Roman findfont
    dup length dict begin
	{1 index /FID ne {def} {pop pop} ifelse} forall
	/Encoding isolatin1encoding def
    currentdict end
definefont pop
/Times-Italic-latin1
    /Times-Italic findfont
    dup length dict begin
	{1 index /FID ne {def} {pop pop} ifelse} forall
	/Encoding isolatin1encoding def
    currentdict end
definefont pop
/Times-Bold-latin1
    /Times-Bold findfont
    dup length dict begin
	{1 index /FID ne {def} {pop pop} ifelse} forall
	/Encoding isolatin1encoding def
    currentdict end
definefont pop
/Times-BoldItalic-latin1
    /Times-BoldItalic findfont
    dup length dict begin
	{1 index /FID ne {def} {pop pop} ifelse} forall
	/Encoding isolatin1encoding def
    currentdict end
definefont pop
/AvantGarde-Gothic-latin1
    /AvantGarde-Gothic findfont
    dup length dict begin
	{1 index /FID ne {def} {pop pop} ifelse} forall
	/Encoding isolatin1encoding def
    currentdict end
definefont pop
/AvantGarde-BookOblique-latin1
    /AvantGarde-BookOblique findfont
    dup length dict begin
	{1 index /FID ne {def} {pop pop} ifelse} forall
	/Encoding isolatin1encoding def
    currentdict end
definefont pop
/AvantGarde-Demi-latin1
    /AvantGarde-Demi findfont
    dup length dict begin
	{1 index /FID ne {def} {pop pop} ifelse} forall
	/Encoding isolatin1encoding def
    currentdict end
definefont pop
/AvantGarde-DemiOblique-latin1
    /AvantGarde-DemiOblique findfont
    dup length dict begin
	{1 index /FID ne {def} {pop pop} ifelse} forall
	/Encoding isolatin1encoding def
    currentdict end
definefont pop
/Bookman-Light-latin1
    /Bookman-Light findfont
    dup length dict begin
	{1 index /FID ne {def} {pop pop} ifelse} forall
	/Encoding isolatin1encoding def
    currentdict end
definefont pop
/Bookman-LightItalic-latin1
    /Bookman-LightItalic findfont
    dup length dict begin
	{1 index /FID ne {def} {pop pop} ifelse} forall
	/Encoding isolatin1encoding def
    currentdict end
definefont pop
/Bookman-Demi-latin1
    /Bookman-Demi findfont
    dup length dict begin
	{1 index /FID ne {def} {pop pop} ifelse} forall
	/Encoding isolatin1encoding def
    currentdict end
definefont pop
/Bookman-DemiItalic-latin1
    /Bookman-DemiItalic findfont
    dup length dict begin
	{1 index /FID ne {def} {pop pop} ifelse} forall
	/Encoding isolatin1encoding def
    currentdict end
definefont pop
/Courier-latin1
    /Courier findfont
    dup length dict begin
	{1 index /FID ne {def} {pop pop} ifelse} forall
	/Encoding isolatin1encoding def
    currentdict end
definefont pop
/Courier-Oblique-latin1
    /Courier-Oblique findfont
    dup length dict begin
	{1 index /FID ne {def} {pop pop} ifelse} forall
	/Encoding isolatin1encoding def
    currentdict end
definefont pop
/Courier-Bold-latin1
    /Courier-Bold findfont
    dup length dict begin
	{1 index /FID ne {def} {pop pop} ifelse} forall
	/Encoding isolatin1encoding def
    currentdict end
definefont pop
/Courier-BoldOblique-latin1
    /Courier-BoldOblique findfont
    dup length dict begin
	{1 index /FID ne {def} {pop pop} ifelse} forall
	/Encoding isolatin1encoding def
    currentdict end
definefont pop
/Helvetica-latin1
    /Helvetica findfont
    dup length dict begin
	{1 index /FID ne {def} {pop pop} ifelse} forall
	/Encoding isolatin1encoding def
    currentdict end
definefont pop
/Helvetica-Oblique-latin1
    /Helvetica-Oblique findfont
    dup length dict begin
	{1 index /FID ne {def} {pop pop} ifelse} forall
	/Encoding isolatin1encoding def
    currentdict end
definefont pop
/Helvetica-Bold-latin1
    /Helvetica-Bold findfont
    dup length dict begin
	{1 index /FID ne {def} {pop pop} ifelse} forall
	/Encoding isolatin1encoding def
    currentdict end
definefont pop
/Helvetica-BoldOblique-latin1
    /Helvetica-BoldOblique findfont
    dup length dict begin
	{1 index /FID ne {def} {pop pop} ifelse} forall
	/Encoding isolatin1encoding def
    currentdict end
definefont pop
/Helvetica-Narrow-latin1
    /Helvetica-Narrow findfont
    dup length dict begin
	{1 index /FID ne {def} {pop pop} ifelse} forall
	/Encoding isolatin1encoding def
    currentdict end
definefont pop
/Helvetica-Narrow-Oblique-latin1
    /Helvetica-Narrow-Oblique findfont
    dup length dict begin
	{1 index /FID ne {def} {pop pop} ifelse} forall
	/Encoding isolatin1encoding def
    currentdict end
definefont pop
/Helvetica-Narrow-Bold-latin1
    /Helvetica-Narrow-Bold findfont
    dup length dict begin
	{1 index /FID ne {def} {pop pop} ifelse} forall
	/Encoding isolatin1encoding def
    currentdict end
definefont pop
/Helvetica-Narrow-BoldOblique-latin1
    /Helvetica-Narrow-BoldOblique findfont
    dup length dict begin
	{1 index /FID ne {def} {pop pop} ifelse} forall
	/Encoding isolatin1encoding def
    currentdict end
definefont pop
/NewCenturySchlbk-Roman-latin1
    /NewCenturySchlbk-Roman findfont
    dup length dict begin
	{1 index /FID ne {def} {pop pop} ifelse} forall
	/Encoding isolatin1encoding def
    currentdict end
definefont pop
/NewCenturySchlbk-Italic-latin1
    /NewCenturySchlbk-Italic findfont
    dup length dict begin
	{1 index /FID ne {def} {pop pop} ifelse} forall
	/Encoding isolatin1encoding def
    currentdict end
definefont pop
/NewCenturySchlbk-Bold-latin1
    /NewCenturySchlbk-Bold findfont
    dup length dict begin
	{1 index /FID ne {def} {pop pop} ifelse} forall
	/Encoding isolatin1encoding def
    currentdict end
definefont pop
/NewCenturySchlbk-BoldItalic-latin1
    /NewCenturySchlbk-BoldItalic findfont
    dup length dict begin
	{1 index /FID ne {def} {pop pop} ifelse} forall
	/Encoding isolatin1encoding def
    currentdict end
definefont pop
/Palatino-Roman-latin1
    /Palatino-Roman findfont
    dup length dict begin
	{1 index /FID ne {def} {pop pop} ifelse} forall
	/Encoding isolatin1encoding def
    currentdict end
definefont pop
/Palatino-Italic-latin1
    /Palatino-Italic findfont
    dup length dict begin
	{1 index /FID ne {def} {pop pop} ifelse} forall
	/Encoding isolatin1encoding def
    currentdict end
definefont pop
/Palatino-Bold-latin1
    /Palatino-Bold findfont
    dup length dict begin
	{1 index /FID ne {def} {pop pop} ifelse} forall
	/Encoding isolatin1encoding def
    currentdict end
definefont pop
/Palatino-BoldItalic-latin1
    /Palatino-BoldItalic findfont
    dup length dict begin
	{1 index /FID ne {def} {pop pop} ifelse} forall
	/Encoding isolatin1encoding def
    currentdict end
definefont pop
/Symbol-latin1
    /Symbol findfont
definefont pop
/ZapfChancery-MediumItalic-latin1
    /ZapfChancery-MediumItalic findfont
    dup length dict begin
	{1 index /FID ne {def} {pop pop} ifelse} forall
	/Encoding isolatin1encoding def
    currentdict end
definefont pop
/ZapfDingbats-latin1
    /ZapfDingbats findfont
    dup length dict begin
	{1 index /FID ne {def} {pop pop} ifelse} forall
	/Encoding isolatin1encoding def
    currentdict end
definefont pop
28.346000 -28.346000 scale
-0.950000 -34.050000 translate
%%EndProlog


0.100000 slw
[] 0 sd
1.000000 1.000000 1.000000 srgb
n 1.000000 1.000000 m 1.000000 2.400000 l 19.210000 2.400000 l 19.210000 1.000000 l f
0.000000 0.000000 0.000000 srgb
n 1.000000 1.000000 m 1.000000 2.400000 l 19.210000 2.400000 l 19.210000 1.000000 l cp s
/Helvetica-Bold-latin1 ff 0.700000 scf sf
(MainWindow) dup sw 2 div 10.105000 ex sub 1.750000 m
 gs 1 -1 sc sh gr
1.000000 1.000000 1.000000 srgb
n 1.000000 2.400000 m 1.000000 11.400000 l 19.210000 11.400000 l 19.210000 2.400000 l f
0.000000 0.000000 0.000000 srgb
n 1.000000 2.400000 m 1.000000 11.400000 l 19.210000 11.400000 l 19.210000 2.400000 l cp s
/Courier-latin1 ff 0.560000 scf sf
(+ui: Ui_mainWindow) 1.150000 2.940000 m
 gs 1 -1 sc sh gr
(+about: AboutThis) 1.150000 3.740000 m
 gs 1 -1 sc sh gr
(+q_application: QApplication) 1.150000 4.540000 m
 gs 1 -1 sc sh gr
(+dialog: AdviceDialog) 1.150000 5.340000 m
 gs 1 -1 sc sh gr
(+observedDiagram: ManageDiagram) 1.150000 6.140000 m
 gs 1 -1 sc sh gr
(+modelDiagram: ManageDiagram) 1.150000 6.940000 m
 gs 1 -1 sc sh gr
(+diagramT2Obs: Diagram) 1.150000 7.740000 m
 gs 1 -1 sc sh gr
(+diagramT2Mod: Diagram) 1.150000 8.540000 m
 gs 1 -1 sc sh gr
(+histogramT2Obs: Histogram) 1.150000 9.340000 m
 gs 1 -1 sc sh gr
(+histogramT2Mod: Histogram) 1.150000 10.140000 m
 gs 1 -1 sc sh gr
( ...) 1.150000 10.940000 m
 gs 1 -1 sc sh gr
1.000000 1.000000 1.000000 srgb
n 1.000000 11.400000 m 1.000000 34.000000 l 19.210000 34.000000 l 19.210000 11.400000 l f
0.000000 0.000000 0.000000 srgb
n 1.000000 11.400000 m 1.000000 34.000000 l 19.210000 34.000000 l 19.210000 11.400000 l cp s
(-__init__\(instance,QApplication\)) 1.150000 11.940000 m
 gs 1 -1 sc sh gr
(-__init_load\(instance\)) 1.150000 12.740000 m
 gs 1 -1 sc sh gr
(+resetAppState\(instance\)) 1.150000 13.540000 m
 gs 1 -1 sc sh gr
(+open_parameters_file\(instance\)) 1.150000 14.340000 m
 gs 1 -1 sc sh gr
(+save_parameters_file\(instance\)) 1.150000 15.140000 m
 gs 1 -1 sc sh gr
(+load_settings\(instance\)) 1.150000 15.940000 m
 gs 1 -1 sc sh gr
(+save_settings\(instance\)) 1.150000 16.740000 m
 gs 1 -1 sc sh gr
(+loadObservedDiagram\(instance,str\)) 1.150000 17.540000 m
 gs 1 -1 sc sh gr
(+loadModelDiagram\(instance,str\)) 1.150000 18.340000 m
 gs 1 -1 sc sh gr
(+diagram_events\(instance,dict\)) 1.150000 19.140000 m
 gs 1 -1 sc sh gr
(+bundle_create\(instance\)) 1.150000 19.940000 m
 gs 1 -1 sc sh gr
(+bundle_open\(instance\)) 1.150000 20.740000 m
 gs 1 -1 sc sh gr
(+bundle_close\(instance\)) 1.150000 21.540000 m
 gs 1 -1 sc sh gr
(+bundle_remove\(instance\)) 1.150000 22.340000 m
 gs 1 -1 sc sh gr
(+bundle_selected\(instance,int\)) 1.150000 23.140000 m
 gs 1 -1 sc sh gr
(+point_table_selected\(instance,QModelIndex\)) 1.150000 23.940000 m
 gs 1 -1 sc sh gr
(+point_add\(instance\)) 1.150000 24.740000 m
 gs 1 -1 sc sh gr
(+point_modify\(instance\)) 1.150000 25.540000 m
 gs 1 -1 sc sh gr
(+point_remove\(instance\)) 1.150000 26.340000 m
 gs 1 -1 sc sh gr
(+table_refresh\(instance,Bundle\)) 1.150000 27.140000 m
 gs 1 -1 sc sh gr
(+callingPlotCMDs\(instance,list=None,list=None\)) 1.150000 27.940000 m
 gs 1 -1 sc sh gr
(+buildHistograms\(instance\)) 1.150000 28.740000 m
 gs 1 -1 sc sh gr
(+loadAgeRanges\(instance\)) 1.150000 29.540000 m
 gs 1 -1 sc sh gr
(+loadMetallicityRanges\(instance\)) 1.150000 30.340000 m
 gs 1 -1 sc sh gr
(+fillTable\(instance,QTableWidget,list,tuple\)) 1.150000 31.140000 m
 gs 1 -1 sc sh gr
(+about_this\(instance\)) 1.150000 31.940000 m
 gs 1 -1 sc sh gr
(+about_qt\(instance\)) 1.150000 32.740000 m
 gs 1 -1 sc sh gr
( ...\(\)) 1.150000 33.540000 m
 gs 1 -1 sc sh gr
showpage
