%!PS-Adobe-3.0
%%Creator: graphviz version 2.38.0 (20140413.2041)
%%Title: dot
%%Pages: (atend)
%%BoundingBox: (atend)
%%EndComments
save
%%BeginProlog
/DotDict 200 dict def
DotDict begin

/setupLatin1 {
mark
/EncodingVector 256 array def
 EncodingVector 0

ISOLatin1Encoding 0 255 getinterval putinterval
EncodingVector 45 /hyphen put

% Set up ISO Latin 1 character encoding
/starnetISO {
        dup dup findfont dup length dict begin
        { 1 index /FID ne { def }{ pop pop } ifelse
        } forall
        /Encoding EncodingVector def
        currentdict end definefont
} def
/Times-Roman starnetISO def
/Times-Italic starnetISO def
/Times-Bold starnetISO def
/Times-BoldItalic starnetISO def
/Helvetica starnetISO def
/Helvetica-Oblique starnetISO def
/Helvetica-Bold starnetISO def
/Helvetica-BoldOblique starnetISO def
/Courier starnetISO def
/Courier-Oblique starnetISO def
/Courier-Bold starnetISO def
/Courier-BoldOblique starnetISO def
cleartomark
} bind def

%%BeginResource: procset graphviz 0 0
/coord-font-family /Times-Roman def
/default-font-family /Times-Roman def
/coordfont coord-font-family findfont 8 scalefont def

/InvScaleFactor 1.0 def
/set_scale {
       dup 1 exch div /InvScaleFactor exch def
       scale
} bind def

% styles
/solid { [] 0 setdash } bind def
/dashed { [9 InvScaleFactor mul dup ] 0 setdash } bind def
/dotted { [1 InvScaleFactor mul 6 InvScaleFactor mul] 0 setdash } bind def
/invis {/fill {newpath} def /stroke {newpath} def /show {pop newpath} def} bind def
/bold { 2 setlinewidth } bind def
/filled { } bind def
/unfilled { } bind def
/rounded { } bind def
/diagonals { } bind def
/tapered { } bind def

% hooks for setting color 
/nodecolor { sethsbcolor } bind def
/edgecolor { sethsbcolor } bind def
/graphcolor { sethsbcolor } bind def
/nopcolor {pop pop pop} bind def

/beginpage {	% i j npages
	/npages exch def
	/j exch def
	/i exch def
	/str 10 string def
	npages 1 gt {
		gsave
			coordfont setfont
			0 0 moveto
			(\() show i str cvs show (,) show j str cvs show (\)) show
		grestore
	} if
} bind def

/set_font {
	findfont exch
	scalefont setfont
} def

% draw text fitted to its expected width
/alignedtext {			% width text
	/text exch def
	/width exch def
	gsave
		width 0 gt {
			[] 0 setdash
			text stringwidth pop width exch sub text length div 0 text ashow
		} if
	grestore
} def

/boxprim {				% xcorner ycorner xsize ysize
		4 2 roll
		moveto
		2 copy
		exch 0 rlineto
		0 exch rlineto
		pop neg 0 rlineto
		closepath
} bind def

/ellipse_path {
	/ry exch def
	/rx exch def
	/y exch def
	/x exch def
	matrix currentmatrix
	newpath
	x y translate
	rx ry scale
	0 0 1 0 360 arc
	setmatrix
} bind def

/endpage { showpage } bind def
/showpage { } def

/layercolorseq
	[	% layer color sequence - darkest to lightest
		[0 0 0]
		[.2 .8 .8]
		[.4 .8 .8]
		[.6 .8 .8]
		[.8 .8 .8]
	]
def

/layerlen layercolorseq length def

/setlayer {/maxlayer exch def /curlayer exch def
	layercolorseq curlayer 1 sub layerlen mod get
	aload pop sethsbcolor
	/nodecolor {nopcolor} def
	/edgecolor {nopcolor} def
	/graphcolor {nopcolor} def
} bind def

/onlayer { curlayer ne {invis} if } def

/onlayers {
	/myupper exch def
	/mylower exch def
	curlayer mylower lt
	curlayer myupper gt
	or
	{invis} if
} def

/curlayer 0 def

%%EndResource
%%EndProlog
%%BeginSetup
14 default-font-family set_font
1 setmiterlimit
% /arrowlength 10 def
% /arrowwidth 5 def

% make sure pdfmark is harmless for PS-interpreters other than Distiller
/pdfmark where {pop} {userdict /pdfmark /cleartomark load put} ifelse
% make '<<' and '>>' safe on PS Level 1 devices
/languagelevel where {pop languagelevel}{1} ifelse
2 lt {
    userdict (<<) cvn ([) cvn load put
    userdict (>>) cvn ([) cvn load put
} if

%%EndSetup
setupLatin1
%%Page: 1 1
%%PageBoundingBox: 36 36 580 275
%%PageOrientation: Portrait
0 0 1 beginpage
gsave
36 36 544 239 boxprim clip newpath
1 1 set_scale 0 rotate 40 40 translate
% cluster_l1
gsave
1 setlinewidth
0 0 0 graphcolor
newpath 8 19 moveto
8 223 lineto
158.94 223 lineto
158.94 19 lineto
closepath stroke
0 0 0 graphcolor
14 /Times-Roman set_font
16 207.8 moveto 42 (Level 1) alignedtext
grestore
% cluster_l2
gsave
1 setlinewidth
0 0 0 graphcolor
newpath 183.88 8 moveto
183.88 223 lineto
246.88 223 lineto
246.88 8 lineto
closepath stroke
0 0 0 graphcolor
14 /Times-Roman set_font
191.88 207.8 moveto 42 (Level 2) alignedtext
grestore
% cluster_l3
gsave
1 setlinewidth
0 0 0 graphcolor
newpath 271.82 8 moveto
271.82 223 lineto
334.82 223 lineto
334.82 8 lineto
closepath stroke
0 0 0 graphcolor
14 /Times-Roman set_font
279.82 207.8 moveto 42 (Level 3) alignedtext
grestore
% cluster_l4
gsave
1 setlinewidth
0 0 0 graphcolor
newpath 359.76 8 moveto
359.76 223 lineto
422.76 223 lineto
422.76 8 lineto
closepath stroke
0 0 0 graphcolor
14 /Times-Roman set_font
367.76 207.8 moveto 42 (Level 4) alignedtext
grestore
% cluster_set
gsave
1 setlinewidth
0 0 0 graphcolor
newpath 430.76 24 moveto
430.76 207 lineto
527.65 207 lineto
527.65 24 lineto
closepath stroke
0 0 0 graphcolor
14 /Times-Roman set_font
438.76 191.8 moveto 28 (Stars) alignedtext
grestore
% n12
gsave
grestore
% n14
gsave
0 0.8 1 nodecolor
127.44 104 19.5 19.5 ellipse_path fill
1 setlinewidth
filled
0 0 0 nodecolor
127.44 104 19.5 19.5 ellipse_path stroke
1 setlinewidth
filled
0 0 0 nodecolor
127.44 104 23.5 23.5 ellipse_path stroke
0 0 0 nodecolor
14 /Times-Roman set_font
120.44 100.3 moveto 14 (10) alignedtext
grestore
% n21
gsave
0.33333 0.6 1 nodecolor
215.38 104 19.5 19.5 ellipse_path fill
1 setlinewidth
filled
0 0 0 nodecolor
215.38 104 19.5 19.5 ellipse_path stroke
1 setlinewidth
filled
0 0 0 nodecolor
215.38 104 23.5 23.5 ellipse_path stroke
0 0 0 nodecolor
14 /Times-Roman set_font
208.38 100.3 moveto 14 (02) alignedtext
grestore
% n14->n21
gsave
1 setlinewidth
0 0 0 edgecolor
newpath 151.02 104 moveto
160.32 104 171.28 104 181.45 104 curveto
stroke
0 0 0 edgecolor
newpath 181.65 107.5 moveto
191.65 104 lineto
181.65 100.5 lineto
closepath fill
1 setlinewidth
solid
0 0 0 edgecolor
newpath 181.65 107.5 moveto
191.65 104 lineto
181.65 100.5 lineto
closepath stroke
grestore
% n15
gsave
0 0.8 1 nodecolor
39.5 115 19.5 19.5 ellipse_path fill
1 setlinewidth
filled
0 0 0 nodecolor
39.5 115 19.5 19.5 ellipse_path stroke
1 setlinewidth
filled
0 0 0 nodecolor
39.5 115 23.5 23.5 ellipse_path stroke
0 0 0 nodecolor
14 /Times-Roman set_font
32.5 111.3 moveto 14 (20) alignedtext
grestore
% n15->n14
gsave
1 setlinewidth
0 0 0.75294 edgecolor
newpath 63.08 112.11 moveto
72.55 110.9 83.75 109.46 94.07 108.14 curveto
stroke
0 0 0.75294 edgecolor
newpath 94.54 111.61 moveto
104.01 106.87 lineto
93.65 104.67 lineto
closepath fill
1 setlinewidth
solid
0 0 0.75294 edgecolor
newpath 94.54 111.61 moveto
104.01 106.87 lineto
93.65 104.67 lineto
closepath stroke
grestore
% n16
gsave
0 0.8 1 nodecolor
127.44 169 19.5 19.5 ellipse_path fill
1 setlinewidth
filled
0 0 0 nodecolor
127.44 169 19.5 19.5 ellipse_path stroke
1 setlinewidth
filled
0 0 0 nodecolor
127.44 169 23.5 23.5 ellipse_path stroke
0 0 0 nodecolor
14 /Times-Roman set_font
120.44 165.3 moveto 14 (30) alignedtext
grestore
% n15->n16
gsave
1 setlinewidth
0 0 0.75294 edgecolor
newpath 60 127.25 moveto
71.32 134.36 85.77 143.44 98.3 151.32 curveto
stroke
0 0 0.75294 edgecolor
newpath 96.69 154.44 moveto
107.02 156.8 lineto
100.41 148.51 lineto
closepath fill
1 setlinewidth
solid
0 0 0.75294 edgecolor
newpath 96.69 154.44 moveto
107.02 156.8 lineto
100.41 148.51 lineto
closepath stroke
grestore
% n23
gsave
0.33333 0.6 1 nodecolor
215.38 39 19.5 19.5 ellipse_path fill
1 setlinewidth
filled
0 0 0 nodecolor
215.38 39 19.5 19.5 ellipse_path stroke
1 setlinewidth
filled
0 0 0 nodecolor
215.38 39 23.5 23.5 ellipse_path stroke
0 0 0 nodecolor
14 /Times-Roman set_font
208.38 35.3 moveto 14 (02) alignedtext
grestore
% n15->n23
gsave
1 setlinewidth
0 0 0 edgecolor
newpath 58.47 100.63 moveto
70.71 91.41 87.59 79.76 103.94 72 curveto
129.18 60.02 159.74 51.3 182.31 45.83 curveto
stroke
0 0 0 edgecolor
newpath 183.13 49.24 moveto
192.07 43.55 lineto
181.53 42.42 lineto
closepath fill
1 setlinewidth
solid
0 0 0 edgecolor
newpath 183.13 49.24 moveto
192.07 43.55 lineto
181.53 42.42 lineto
closepath stroke
grestore
% n22
gsave
0.33333 0.6 1 nodecolor
215.38 169 19.5 19.5 ellipse_path fill
1 setlinewidth
filled
0 0 0 nodecolor
215.38 169 19.5 19.5 ellipse_path stroke
1 setlinewidth
filled
0 0 0 nodecolor
215.38 169 23.5 23.5 ellipse_path stroke
0 0 0 nodecolor
14 /Times-Roman set_font
208.38 165.3 moveto 14 (02) alignedtext
grestore
% n16->n22
gsave
1 setlinewidth
0 0 0 edgecolor
newpath 151.02 169 moveto
160.32 169 171.28 169 181.45 169 curveto
stroke
0 0 0 edgecolor
newpath 181.65 172.5 moveto
191.65 169 lineto
181.65 165.5 lineto
closepath fill
1 setlinewidth
solid
0 0 0 edgecolor
newpath 181.65 172.5 moveto
191.65 169 lineto
181.65 165.5 lineto
closepath stroke
grestore
% n18
gsave
grestore
% n31
gsave
0.1 1 1 nodecolor
303.32 104 19.5 19.5 ellipse_path fill
1 setlinewidth
filled
0 0 0 nodecolor
303.32 104 19.5 19.5 ellipse_path stroke
1 setlinewidth
filled
0 0 0 nodecolor
303.32 104 23.5 23.5 ellipse_path stroke
0 0 0 nodecolor
14 /Times-Roman set_font
296.32 100.3 moveto 14 (40) alignedtext
grestore
% n21->n31
gsave
1 setlinewidth
0 0 0 edgecolor
newpath 238.96 104 moveto
248.26 104 259.22 104 269.39 104 curveto
stroke
0 0 0 edgecolor
newpath 269.59 107.5 moveto
279.59 104 lineto
269.59 100.5 lineto
closepath fill
1 setlinewidth
solid
0 0 0 edgecolor
newpath 269.59 107.5 moveto
279.59 104 lineto
269.59 100.5 lineto
closepath stroke
grestore
% n32
gsave
0.1 1 1 nodecolor
303.32 169 19.5 19.5 ellipse_path fill
1 setlinewidth
filled
0 0 0 nodecolor
303.32 169 19.5 19.5 ellipse_path stroke
1 setlinewidth
filled
0 0 0 nodecolor
303.32 169 23.5 23.5 ellipse_path stroke
0 0 0 nodecolor
14 /Times-Roman set_font
296.32 165.3 moveto 14 (50) alignedtext
grestore
% n22->n32
gsave
1 setlinewidth
0 0 0 edgecolor
newpath 238.96 169 moveto
248.26 169 259.22 169 269.39 169 curveto
stroke
0 0 0 edgecolor
newpath 269.59 172.5 moveto
279.59 169 lineto
269.59 165.5 lineto
closepath fill
1 setlinewidth
solid
0 0 0 edgecolor
newpath 269.59 172.5 moveto
279.59 169 lineto
269.59 165.5 lineto
closepath stroke
grestore
% n33
gsave
0.1 1 1 nodecolor
303.32 39 19.5 19.5 ellipse_path fill
1 setlinewidth
filled
0 0 0 nodecolor
303.32 39 19.5 19.5 ellipse_path stroke
1 setlinewidth
filled
0 0 0 nodecolor
303.32 39 23.5 23.5 ellipse_path stroke
0 0 0 nodecolor
14 /Times-Roman set_font
296.32 35.3 moveto 14 (60) alignedtext
grestore
% n23->n33
gsave
1 setlinewidth
0 0 0 edgecolor
newpath 238.96 39 moveto
248.26 39 259.22 39 269.39 39 curveto
stroke
0 0 0 edgecolor
newpath 269.59 42.5 moveto
279.59 39 lineto
269.59 35.5 lineto
closepath fill
1 setlinewidth
solid
0 0 0 edgecolor
newpath 269.59 42.5 moveto
279.59 39 lineto
269.59 35.5 lineto
closepath stroke
grestore
% n41
gsave
0.625 0.8 1 nodecolor
391.26 104 19.5 19.5 ellipse_path fill
1 setlinewidth
filled
0 0 0 nodecolor
391.26 104 19.5 19.5 ellipse_path stroke
1 setlinewidth
filled
0 0 0 nodecolor
391.26 104 23.5 23.5 ellipse_path stroke
0 0 0 nodecolor
14 /Times-Roman set_font
384.26 100.3 moveto 14 (70) alignedtext
grestore
% n31->n41
gsave
1 setlinewidth
0 0 0 edgecolor
newpath 326.9 104 moveto
336.2 104 347.16 104 357.33 104 curveto
stroke
0 0 0 edgecolor
newpath 357.54 107.5 moveto
367.54 104 lineto
357.54 100.5 lineto
closepath fill
1 setlinewidth
solid
0 0 0 edgecolor
newpath 357.54 107.5 moveto
367.54 104 lineto
357.54 100.5 lineto
closepath stroke
grestore
% n42
gsave
0.625 0.8 1 nodecolor
391.26 169 19.5 19.5 ellipse_path fill
1 setlinewidth
filled
0 0 0 nodecolor
391.26 169 19.5 19.5 ellipse_path stroke
1 setlinewidth
filled
0 0 0 nodecolor
391.26 169 23.5 23.5 ellipse_path stroke
0 0 0 nodecolor
14 /Times-Roman set_font
384.26 165.3 moveto 14 (80) alignedtext
grestore
% n32->n42
gsave
1 setlinewidth
0 0 0 edgecolor
newpath 326.9 169 moveto
336.2 169 347.16 169 357.33 169 curveto
stroke
0 0 0 edgecolor
newpath 357.54 172.5 moveto
367.54 169 lineto
357.54 165.5 lineto
closepath fill
1 setlinewidth
solid
0 0 0 edgecolor
newpath 357.54 172.5 moveto
367.54 169 lineto
357.54 165.5 lineto
closepath stroke
grestore
% n43
gsave
0.625 0.8 1 nodecolor
391.26 39 19.5 19.5 ellipse_path fill
1 setlinewidth
filled
0 0 0 nodecolor
391.26 39 19.5 19.5 ellipse_path stroke
1 setlinewidth
filled
0 0 0 nodecolor
391.26 39 23.5 23.5 ellipse_path stroke
0 0 0 nodecolor
14 /Times-Roman set_font
384.26 35.3 moveto 14 (90) alignedtext
grestore
% n33->n43
gsave
1 setlinewidth
0 0 0 edgecolor
newpath 326.9 39 moveto
336.2 39 347.16 39 357.33 39 curveto
stroke
0 0 0 edgecolor
newpath 357.54 42.5 moveto
367.54 39 lineto
357.54 35.5 lineto
closepath fill
1 setlinewidth
solid
0 0 0 edgecolor
newpath 357.54 42.5 moveto
367.54 39 lineto
357.54 35.5 lineto
closepath stroke
grestore
% s3
gsave
0.83333 0.6 1 nodecolor
newpath 479.2 122 moveto
438.82 104 lineto
479.2 86 lineto
519.59 104 lineto
closepath fill
1 setlinewidth
filled
0 0 0 nodecolor
newpath 479.2 122 moveto
438.82 104 lineto
479.2 86 lineto
519.59 104 lineto
closepath stroke
1 setlinewidth
filled
0 0 0 nodecolor
newpath 449.78 108.89 moveto
449.78 99.11 lineto
stroke
1 setlinewidth
filled
0 0 0 nodecolor
newpath 468.24 90.89 moveto
490.16 90.89 lineto
stroke
1 setlinewidth
filled
0 0 0 nodecolor
newpath 508.63 99.11 moveto
508.63 108.89 lineto
stroke
1 setlinewidth
filled
0 0 0 nodecolor
newpath 490.16 117.11 moveto
468.24 117.11 lineto
stroke
0 0 0 nodecolor
14 /Times-Roman set_font
465.2 100.3 moveto 28 ({ 3 }) alignedtext
grestore
% n41->s3
gsave
1 setlinewidth
0 1 1 edgecolor
newpath 414.84 104 moveto
419.04 104 423.58 104 428.22 104 curveto
stroke
0 1 1 edgecolor
newpath 428.49 107.5 moveto
438.49 104 lineto
428.49 100.5 lineto
closepath fill
1 setlinewidth
solid
0 1 1 edgecolor
newpath 428.49 107.5 moveto
438.49 104 lineto
428.49 100.5 lineto
closepath stroke
grestore
% s1
gsave
0.83333 0.6 1 nodecolor
newpath 479.2 176 moveto
438.82 158 lineto
479.2 140 lineto
519.59 158 lineto
closepath fill
1 setlinewidth
filled
0 0 0 nodecolor
newpath 479.2 176 moveto
438.82 158 lineto
479.2 140 lineto
519.59 158 lineto
closepath stroke
1 setlinewidth
filled
0 0 0 nodecolor
newpath 449.78 162.89 moveto
449.78 153.11 lineto
stroke
1 setlinewidth
filled
0 0 0 nodecolor
newpath 468.24 144.89 moveto
490.16 144.89 lineto
stroke
1 setlinewidth
filled
0 0 0 nodecolor
newpath 508.63 153.11 moveto
508.63 162.89 lineto
stroke
1 setlinewidth
filled
0 0 0 nodecolor
newpath 490.16 171.11 moveto
468.24 171.11 lineto
stroke
0 0 0 nodecolor
14 /Times-Roman set_font
465.2 154.3 moveto 28 ({ 1 }) alignedtext
grestore
% n42->s1
gsave
1 setlinewidth
0 1 1 edgecolor
newpath 414.84 166.11 moveto
421.76 165.22 429.59 164.22 437.33 163.23 curveto
stroke
0 1 1 edgecolor
newpath 437.9 166.69 moveto
447.37 161.95 lineto
437.01 159.74 lineto
closepath fill
1 setlinewidth
solid
0 1 1 edgecolor
newpath 437.9 166.69 moveto
447.37 161.95 lineto
437.01 159.74 lineto
closepath stroke
grestore
% s2
gsave
0.83333 0.6 1 nodecolor
newpath 479.2 68 moveto
438.82 50 lineto
479.2 32 lineto
519.59 50 lineto
closepath fill
1 setlinewidth
filled
0 0 0 nodecolor
newpath 479.2 68 moveto
438.82 50 lineto
479.2 32 lineto
519.59 50 lineto
closepath stroke
1 setlinewidth
filled
0 0 0 nodecolor
newpath 449.78 54.89 moveto
449.78 45.11 lineto
stroke
1 setlinewidth
filled
0 0 0 nodecolor
newpath 468.24 36.89 moveto
490.16 36.89 lineto
stroke
1 setlinewidth
filled
0 0 0 nodecolor
newpath 508.63 45.11 moveto
508.63 54.89 lineto
stroke
1 setlinewidth
filled
0 0 0 nodecolor
newpath 490.16 63.11 moveto
468.24 63.11 lineto
stroke
0 0 0 nodecolor
14 /Times-Roman set_font
465.2 46.3 moveto 28 ({ 2 }) alignedtext
grestore
% n43->s2
gsave
1 setlinewidth
0 1 1 edgecolor
newpath 414.84 41.89 moveto
421.76 42.78 429.59 43.78 437.33 44.77 curveto
stroke
0 1 1 edgecolor
newpath 437.01 48.26 moveto
447.37 46.05 lineto
437.9 41.31 lineto
closepath fill
1 setlinewidth
solid
0 1 1 edgecolor
newpath 437.01 48.26 moveto
447.37 46.05 lineto
437.9 41.31 lineto
closepath stroke
grestore
endpage
showpage
grestore
%%PageTrailer
%%EndPage: 1
%%Trailer
%%Pages: 1
%%BoundingBox: 36 36 580 275
end
restore
%%EOF
