%!PS-Adobe-3.0
%%Creator: graphviz version 2.38.0 (20140413.2041)
%%Title: dot
%%Pages: (atend)
%%BoundingBox: (atend)
%%EndComments
save
%%BeginProlog
/DotDict 200 dict def
DotDict begin

/setupLatin1 {
mark
/EncodingVector 256 array def
 EncodingVector 0

ISOLatin1Encoding 0 255 getinterval putinterval
EncodingVector 45 /hyphen put

% Set up ISO Latin 1 character encoding
/starnetISO {
        dup dup findfont dup length dict begin
        { 1 index /FID ne { def }{ pop pop } ifelse
        } forall
        /Encoding EncodingVector def
        currentdict end definefont
} def
/Times-Roman starnetISO def
/Times-Italic starnetISO def
/Times-Bold starnetISO def
/Times-BoldItalic starnetISO def
/Helvetica starnetISO def
/Helvetica-Oblique starnetISO def
/Helvetica-Bold starnetISO def
/Helvetica-BoldOblique starnetISO def
/Courier starnetISO def
/Courier-Oblique starnetISO def
/Courier-Bold starnetISO def
/Courier-BoldOblique starnetISO def
cleartomark
} bind def

%%BeginResource: procset graphviz 0 0
/coord-font-family /Times-Roman def
/default-font-family /Times-Roman def
/coordfont coord-font-family findfont 8 scalefont def

/InvScaleFactor 1.0 def
/set_scale {
       dup 1 exch div /InvScaleFactor exch def
       scale
} bind def

% styles
/solid { [] 0 setdash } bind def
/dashed { [9 InvScaleFactor mul dup ] 0 setdash } bind def
/dotted { [1 InvScaleFactor mul 6 InvScaleFactor mul] 0 setdash } bind def
/invis {/fill {newpath} def /stroke {newpath} def /show {pop newpath} def} bind def
/bold { 2 setlinewidth } bind def
/filled { } bind def
/unfilled { } bind def
/rounded { } bind def
/diagonals { } bind def
/tapered { } bind def

% hooks for setting color 
/nodecolor { sethsbcolor } bind def
/edgecolor { sethsbcolor } bind def
/graphcolor { sethsbcolor } bind def
/nopcolor {pop pop pop} bind def

/beginpage {	% i j npages
	/npages exch def
	/j exch def
	/i exch def
	/str 10 string def
	npages 1 gt {
		gsave
			coordfont setfont
			0 0 moveto
			(\() show i str cvs show (,) show j str cvs show (\)) show
		grestore
	} if
} bind def

/set_font {
	findfont exch
	scalefont setfont
} def

% draw text fitted to its expected width
/alignedtext {			% width text
	/text exch def
	/width exch def
	gsave
		width 0 gt {
			[] 0 setdash
			text stringwidth pop width exch sub text length div 0 text ashow
		} if
	grestore
} def

/boxprim {				% xcorner ycorner xsize ysize
		4 2 roll
		moveto
		2 copy
		exch 0 rlineto
		0 exch rlineto
		pop neg 0 rlineto
		closepath
} bind def

/ellipse_path {
	/ry exch def
	/rx exch def
	/y exch def
	/x exch def
	matrix currentmatrix
	newpath
	x y translate
	rx ry scale
	0 0 1 0 360 arc
	setmatrix
} bind def

/endpage { showpage } bind def
/showpage { } def

/layercolorseq
	[	% layer color sequence - darkest to lightest
		[0 0 0]
		[.2 .8 .8]
		[.4 .8 .8]
		[.6 .8 .8]
		[.8 .8 .8]
	]
def

/layerlen layercolorseq length def

/setlayer {/maxlayer exch def /curlayer exch def
	layercolorseq curlayer 1 sub layerlen mod get
	aload pop sethsbcolor
	/nodecolor {nopcolor} def
	/edgecolor {nopcolor} def
	/graphcolor {nopcolor} def
} bind def

/onlayer { curlayer ne {invis} if } def

/onlayers {
	/myupper exch def
	/mylower exch def
	curlayer mylower lt
	curlayer myupper gt
	or
	{invis} if
} def

/curlayer 0 def

%%EndResource
%%EndProlog
%%BeginSetup
14 default-font-family set_font
1 setmiterlimit
% /arrowlength 10 def
% /arrowwidth 5 def

% make sure pdfmark is harmless for PS-interpreters other than Distiller
/pdfmark where {pop} {userdict /pdfmark /cleartomark load put} ifelse
% make '<<' and '>>' safe on PS Level 1 devices
/languagelevel where {pop languagelevel}{1} ifelse
2 lt {
    userdict (<<) cvn ([) cvn load put
    userdict (>>) cvn ([) cvn load put
} if

%%EndSetup
setupLatin1
%%Page: 1 1
%%PageBoundingBox: 36 36 509 249
%%PageOrientation: Portrait
0 0 1 beginpage
gsave
36 36 473 213 boxprim clip newpath
1 1 set_scale 0 rotate 40 40 translate
% cluster_l1
gsave
1 setlinewidth
0 0 0 graphcolor
newpath 8 8 moveto
8 197 lineto
78 197 lineto
78 8 lineto
closepath stroke
0 0 0 graphcolor
14 /Times-Roman set_font
16 181.8 moveto 42 (Level 1) alignedtext
grestore
% cluster_l2
gsave
1 setlinewidth
0 0 0 graphcolor
newpath 99.44 9 moveto
99.44 196 lineto
169.44 196 lineto
169.44 9 lineto
closepath stroke
0 0 0 graphcolor
14 /Times-Roman set_font
107.44 180.8 moveto 42 (Level 2) alignedtext
grestore
% cluster_l3
gsave
1 setlinewidth
0 0 0 graphcolor
newpath 190.89 9 moveto
190.89 196 lineto
260.89 196 lineto
260.89 9 lineto
closepath stroke
0 0 0 graphcolor
14 /Times-Roman set_font
198.89 180.8 moveto 42 (Level 3) alignedtext
grestore
% cluster_l4
gsave
1 setlinewidth
0 0 0 graphcolor
newpath 282.33 9 moveto
282.33 196 lineto
352.33 196 lineto
352.33 9 lineto
closepath stroke
0 0 0 graphcolor
14 /Times-Roman set_font
290.33 180.8 moveto 42 (Level 4) alignedtext
grestore
% cluster_set
gsave
1 setlinewidth
0 0 0 graphcolor
newpath 360.33 11 moveto
360.33 194 lineto
457.21 194 lineto
457.21 11 lineto
closepath stroke
0 0 0 graphcolor
14 /Times-Roman set_font
368.33 178.8 moveto 28 (Stars) alignedtext
grestore
% n11
gsave
grestore
% n12
gsave
0 0.8 1 nodecolor
newpath 16 56.5 moveto
16 125.5 lineto
70 125.5 lineto
70 56.5 lineto
closepath fill
1 setlinewidth
filled
0 0 0 nodecolor
newpath 16 56.5 moveto
16 125.5 lineto
70 125.5 lineto
70 56.5 lineto
closepath stroke
0 0 0 nodecolor
14 /Times-Roman set_font
36 110.3 moveto 14 (10) alignedtext
1 setlinewidth
filled
0 0 0 nodecolor
newpath 16 102.5 moveto
70 102.5 lineto
stroke
0 0 0 nodecolor
14 /Times-Roman set_font
36 87.3 moveto 14 (20) alignedtext
1 setlinewidth
filled
0 0 0 nodecolor
newpath 16 79.5 moveto
70 79.5 lineto
stroke
0 0 0 nodecolor
14 /Times-Roman set_font
36 64.3 moveto 14 (30) alignedtext
grestore
% n21
gsave
0.33333 0.6 1 nodecolor
newpath 107.44 128 moveto
107.44 164 lineto
161.44 164 lineto
161.44 128 lineto
closepath fill
1 setlinewidth
filled
0 0 0 nodecolor
newpath 107.44 128 moveto
107.44 164 lineto
161.44 164 lineto
161.44 128 lineto
closepath stroke
0 0 0 nodecolor
14 /Times-Roman set_font
127.44 142.3 moveto 14 (02) alignedtext
grestore
% n12->n21
gsave
1 setlinewidth
0 0 0 edgecolor
newpath 71 114 moveto
81.8 114 92.61 117.84 102.13 122.86 curveto
stroke
0 0 0 edgecolor
newpath 100.41 125.91 moveto
110.81 127.94 lineto
103.95 119.87 lineto
closepath fill
1 setlinewidth
solid
0 0 0 edgecolor
newpath 100.41 125.91 moveto
110.81 127.94 lineto
103.95 119.87 lineto
closepath stroke
grestore
% n22
gsave
0.33333 0.6 1 nodecolor
newpath 107.44 73 moveto
107.44 109 lineto
161.44 109 lineto
161.44 73 lineto
closepath fill
1 setlinewidth
filled
0 0 0 nodecolor
newpath 107.44 73 moveto
107.44 109 lineto
161.44 109 lineto
161.44 73 lineto
closepath stroke
0 0 0 nodecolor
14 /Times-Roman set_font
127.44 87.3 moveto 14 (02) alignedtext
grestore
% n12->n22
gsave
1 setlinewidth
0 0 0 edgecolor
newpath 71 91 moveto
79.48 91 88.6 91 97.19 91 curveto
stroke
0 0 0 edgecolor
newpath 97.32 94.5 moveto
107.32 91 lineto
97.31 87.5 lineto
closepath fill
1 setlinewidth
solid
0 0 0 edgecolor
newpath 97.32 94.5 moveto
107.32 91 lineto
97.31 87.5 lineto
closepath stroke
grestore
% n23
gsave
0.33333 0.6 1 nodecolor
newpath 107.44 18 moveto
107.44 54 lineto
161.44 54 lineto
161.44 18 lineto
closepath fill
1 setlinewidth
filled
0 0 0 nodecolor
newpath 107.44 18 moveto
107.44 54 lineto
161.44 54 lineto
161.44 18 lineto
closepath stroke
0 0 0 nodecolor
14 /Times-Roman set_font
127.44 32.3 moveto 14 (02) alignedtext
grestore
% n12->n23
gsave
1 setlinewidth
0 0 0 edgecolor
newpath 71 68 moveto
81.8 68 92.61 64.16 102.13 59.14 curveto
stroke
0 0 0 edgecolor
newpath 103.95 62.13 moveto
110.81 54.06 lineto
100.41 56.09 lineto
closepath fill
1 setlinewidth
solid
0 0 0 edgecolor
newpath 103.95 62.13 moveto
110.81 54.06 lineto
100.41 56.09 lineto
closepath stroke
grestore
% n13
gsave
grestore
% n31
gsave
0.1 1 1 nodecolor
newpath 198.89 128 moveto
198.89 164 lineto
252.89 164 lineto
252.89 128 lineto
closepath fill
1 setlinewidth
filled
0 0 0 nodecolor
newpath 198.89 128 moveto
198.89 164 lineto
252.89 164 lineto
252.89 128 lineto
closepath stroke
0 0 0 nodecolor
14 /Times-Roman set_font
218.89 142.3 moveto 14 (40) alignedtext
grestore
% n21->n31
gsave
1 setlinewidth
0 0 0 edgecolor
newpath 161.79 146 moveto
170.17 146 179.57 146 188.52 146 curveto
stroke
0 0 0 edgecolor
newpath 188.72 149.5 moveto
198.72 146 lineto
188.72 142.5 lineto
closepath fill
1 setlinewidth
solid
0 0 0 edgecolor
newpath 188.72 149.5 moveto
198.72 146 lineto
188.72 142.5 lineto
closepath stroke
grestore
% n32
gsave
0.1 1 1 nodecolor
newpath 198.89 73 moveto
198.89 109 lineto
252.89 109 lineto
252.89 73 lineto
closepath fill
1 setlinewidth
filled
0 0 0 nodecolor
newpath 198.89 73 moveto
198.89 109 lineto
252.89 109 lineto
252.89 73 lineto
closepath stroke
0 0 0 nodecolor
14 /Times-Roman set_font
218.89 87.3 moveto 14 (60) alignedtext
grestore
% n22->n32
gsave
1 setlinewidth
0 0 0 edgecolor
newpath 161.79 91 moveto
170.17 91 179.57 91 188.52 91 curveto
stroke
0 0 0 edgecolor
newpath 188.72 94.5 moveto
198.72 91 lineto
188.72 87.5 lineto
closepath fill
1 setlinewidth
solid
0 0 0 edgecolor
newpath 188.72 94.5 moveto
198.72 91 lineto
188.72 87.5 lineto
closepath stroke
grestore
% n33
gsave
0.1 1 1 nodecolor
newpath 198.89 18 moveto
198.89 54 lineto
252.89 54 lineto
252.89 18 lineto
closepath fill
1 setlinewidth
filled
0 0 0 nodecolor
newpath 198.89 18 moveto
198.89 54 lineto
252.89 54 lineto
252.89 18 lineto
closepath stroke
0 0 0 nodecolor
14 /Times-Roman set_font
218.89 32.3 moveto 14 (50) alignedtext
grestore
% n23->n33
gsave
1 setlinewidth
0 0 0 edgecolor
newpath 161.79 36 moveto
170.17 36 179.57 36 188.52 36 curveto
stroke
0 0 0 edgecolor
newpath 188.72 39.5 moveto
198.72 36 lineto
188.72 32.5 lineto
closepath fill
1 setlinewidth
solid
0 0 0 edgecolor
newpath 188.72 39.5 moveto
198.72 36 lineto
188.72 32.5 lineto
closepath stroke
grestore
% n41
gsave
0.625 0.8 1 nodecolor
newpath 290.33 128 moveto
290.33 164 lineto
344.33 164 lineto
344.33 128 lineto
closepath fill
1 setlinewidth
filled
0 0 0 nodecolor
newpath 290.33 128 moveto
290.33 164 lineto
344.33 164 lineto
344.33 128 lineto
closepath stroke
0 0 0 nodecolor
14 /Times-Roman set_font
310.33 142.3 moveto 14 (70) alignedtext
grestore
% n31->n41
gsave
1 setlinewidth
0 0 0 edgecolor
newpath 253.24 146 moveto
261.61 146 271.02 146 279.96 146 curveto
stroke
0 0 0 edgecolor
newpath 280.17 149.5 moveto
290.17 146 lineto
280.17 142.5 lineto
closepath fill
1 setlinewidth
solid
0 0 0 edgecolor
newpath 280.17 149.5 moveto
290.17 146 lineto
280.17 142.5 lineto
closepath stroke
grestore
% n42
gsave
0.625 0.8 1 nodecolor
newpath 290.33 73 moveto
290.33 109 lineto
344.33 109 lineto
344.33 73 lineto
closepath fill
1 setlinewidth
filled
0 0 0 nodecolor
newpath 290.33 73 moveto
290.33 109 lineto
344.33 109 lineto
344.33 73 lineto
closepath stroke
0 0 0 nodecolor
14 /Times-Roman set_font
310.33 87.3 moveto 14 (90) alignedtext
grestore
% n32->n42
gsave
1 setlinewidth
0 0 0 edgecolor
newpath 253.24 91 moveto
261.61 91 271.02 91 279.96 91 curveto
stroke
0 0 0 edgecolor
newpath 280.17 94.5 moveto
290.17 91 lineto
280.17 87.5 lineto
closepath fill
1 setlinewidth
solid
0 0 0 edgecolor
newpath 280.17 94.5 moveto
290.17 91 lineto
280.17 87.5 lineto
closepath stroke
grestore
% n43
gsave
0.625 0.8 1 nodecolor
newpath 290.33 18 moveto
290.33 54 lineto
344.33 54 lineto
344.33 18 lineto
closepath fill
1 setlinewidth
filled
0 0 0 nodecolor
newpath 290.33 18 moveto
290.33 54 lineto
344.33 54 lineto
344.33 18 lineto
closepath stroke
0 0 0 nodecolor
14 /Times-Roman set_font
310.33 32.3 moveto 14 (80) alignedtext
grestore
% n33->n43
gsave
1 setlinewidth
0 0 0 edgecolor
newpath 253.24 36 moveto
261.61 36 271.02 36 279.96 36 curveto
stroke
0 0 0 edgecolor
newpath 280.17 39.5 moveto
290.17 36 lineto
280.17 32.5 lineto
closepath fill
1 setlinewidth
solid
0 0 0 edgecolor
newpath 280.17 39.5 moveto
290.17 36 lineto
280.17 32.5 lineto
closepath stroke
grestore
% s1
gsave
0.83333 0.6 1 nodecolor
newpath 408.77 163 moveto
368.39 145 lineto
408.77 127 lineto
449.16 145 lineto
closepath fill
1 setlinewidth
filled
0 0 0 nodecolor
newpath 408.77 163 moveto
368.39 145 lineto
408.77 127 lineto
449.16 145 lineto
closepath stroke
1 setlinewidth
filled
0 0 0 nodecolor
newpath 379.35 149.89 moveto
379.35 140.11 lineto
stroke
1 setlinewidth
filled
0 0 0 nodecolor
newpath 397.81 131.89 moveto
419.73 131.89 lineto
stroke
1 setlinewidth
filled
0 0 0 nodecolor
newpath 438.2 140.11 moveto
438.2 149.89 lineto
stroke
1 setlinewidth
filled
0 0 0 nodecolor
newpath 419.73 158.11 moveto
397.81 158.11 lineto
stroke
0 0 0 nodecolor
14 /Times-Roman set_font
394.77 141.3 moveto 28 ({ 3 }) alignedtext
grestore
% n41->s1
gsave
1 setlinewidth
0 1 1 edgecolor
newpath 344.68 145.71 moveto
349.27 145.65 354.17 145.6 359.14 145.54 curveto
stroke
0 1 1 edgecolor
newpath 359.38 149.04 moveto
369.35 145.43 lineto
359.31 142.04 lineto
closepath fill
1 setlinewidth
solid
0 1 1 edgecolor
newpath 359.38 149.04 moveto
369.35 145.43 lineto
359.31 142.04 lineto
closepath stroke
grestore
% s2
gsave
0.83333 0.6 1 nodecolor
newpath 408.77 109 moveto
368.39 91 lineto
408.77 73 lineto
449.16 91 lineto
closepath fill
1 setlinewidth
filled
0 0 0 nodecolor
newpath 408.77 109 moveto
368.39 91 lineto
408.77 73 lineto
449.16 91 lineto
closepath stroke
1 setlinewidth
filled
0 0 0 nodecolor
newpath 379.35 95.89 moveto
379.35 86.11 lineto
stroke
1 setlinewidth
filled
0 0 0 nodecolor
newpath 397.81 77.89 moveto
419.73 77.89 lineto
stroke
1 setlinewidth
filled
0 0 0 nodecolor
newpath 438.2 86.11 moveto
438.2 95.89 lineto
stroke
1 setlinewidth
filled
0 0 0 nodecolor
newpath 419.73 104.11 moveto
397.81 104.11 lineto
stroke
0 0 0 nodecolor
14 /Times-Roman set_font
394.77 87.3 moveto 28 ({ 2 }) alignedtext
grestore
% n42->s2
gsave
1 setlinewidth
0 1 1 edgecolor
newpath 344.68 91 moveto
348.97 91 353.53 91 358.17 91 curveto
stroke
0 1 1 edgecolor
newpath 358.35 94.5 moveto
368.35 91 lineto
358.35 87.5 lineto
closepath fill
1 setlinewidth
solid
0 1 1 edgecolor
newpath 358.35 94.5 moveto
368.35 91 lineto
358.35 87.5 lineto
closepath stroke
grestore
% s3
gsave
0.83333 0.6 1 nodecolor
newpath 408.77 55 moveto
368.39 37 lineto
408.77 19 lineto
449.16 37 lineto
closepath fill
1 setlinewidth
filled
0 0 0 nodecolor
newpath 408.77 55 moveto
368.39 37 lineto
408.77 19 lineto
449.16 37 lineto
closepath stroke
1 setlinewidth
filled
0 0 0 nodecolor
newpath 379.35 41.89 moveto
379.35 32.11 lineto
stroke
1 setlinewidth
filled
0 0 0 nodecolor
newpath 397.81 23.89 moveto
419.73 23.89 lineto
stroke
1 setlinewidth
filled
0 0 0 nodecolor
newpath 438.2 32.11 moveto
438.2 41.89 lineto
stroke
1 setlinewidth
filled
0 0 0 nodecolor
newpath 419.73 50.11 moveto
397.81 50.11 lineto
stroke
0 0 0 nodecolor
14 /Times-Roman set_font
394.77 33.3 moveto 28 ({ 1 }) alignedtext
grestore
% n43->s3
gsave
1 setlinewidth
0 1 1 edgecolor
newpath 344.68 36.29 moveto
349.27 36.35 354.17 36.4 359.14 36.46 curveto
stroke
0 1 1 edgecolor
newpath 359.31 39.96 moveto
369.35 36.57 lineto
359.38 32.96 lineto
closepath fill
1 setlinewidth
solid
0 1 1 edgecolor
newpath 359.31 39.96 moveto
369.35 36.57 lineto
359.38 32.96 lineto
closepath stroke
grestore
endpage
showpage
grestore
%%PageTrailer
%%EndPage: 1
%%Trailer
%%Pages: 1
%%BoundingBox: 36 36 509 249
end
restore
%%EOF
