%!PS-Adobe-3.0
%%Creator: graphviz version 2.38.0 (20140413.2041)
%%Title: dot
%%Pages: (atend)
%%BoundingBox: (atend)
%%EndComments
save
%%BeginProlog
/DotDict 200 dict def
DotDict begin

/setupLatin1 {
mark
/EncodingVector 256 array def
 EncodingVector 0

ISOLatin1Encoding 0 255 getinterval putinterval
EncodingVector 45 /hyphen put

% Set up ISO Latin 1 character encoding
/starnetISO {
        dup dup findfont dup length dict begin
        { 1 index /FID ne { def }{ pop pop } ifelse
        } forall
        /Encoding EncodingVector def
        currentdict end definefont
} def
/Times-Roman starnetISO def
/Times-Italic starnetISO def
/Times-Bold starnetISO def
/Times-BoldItalic starnetISO def
/Helvetica starnetISO def
/Helvetica-Oblique starnetISO def
/Helvetica-Bold starnetISO def
/Helvetica-BoldOblique starnetISO def
/Courier starnetISO def
/Courier-Oblique starnetISO def
/Courier-Bold starnetISO def
/Courier-BoldOblique starnetISO def
cleartomark
} bind def

%%BeginResource: procset graphviz 0 0
/coord-font-family /Times-Roman def
/default-font-family /Times-Roman def
/coordfont coord-font-family findfont 8 scalefont def

/InvScaleFactor 1.0 def
/set_scale {
       dup 1 exch div /InvScaleFactor exch def
       scale
} bind def

% styles
/solid { [] 0 setdash } bind def
/dashed { [9 InvScaleFactor mul dup ] 0 setdash } bind def
/dotted { [1 InvScaleFactor mul 6 InvScaleFactor mul] 0 setdash } bind def
/invis {/fill {newpath} def /stroke {newpath} def /show {pop newpath} def} bind def
/bold { 2 setlinewidth } bind def
/filled { } bind def
/unfilled { } bind def
/rounded { } bind def
/diagonals { } bind def
/tapered { } bind def

% hooks for setting color 
/nodecolor { sethsbcolor } bind def
/edgecolor { sethsbcolor } bind def
/graphcolor { sethsbcolor } bind def
/nopcolor {pop pop pop} bind def

/beginpage {	% i j npages
	/npages exch def
	/j exch def
	/i exch def
	/str 10 string def
	npages 1 gt {
		gsave
			coordfont setfont
			0 0 moveto
			(\() show i str cvs show (,) show j str cvs show (\)) show
		grestore
	} if
} bind def

/set_font {
	findfont exch
	scalefont setfont
} def

% draw text fitted to its expected width
/alignedtext {			% width text
	/text exch def
	/width exch def
	gsave
		width 0 gt {
			[] 0 setdash
			text stringwidth pop width exch sub text length div 0 text ashow
		} if
	grestore
} def

/boxprim {				% xcorner ycorner xsize ysize
		4 2 roll
		moveto
		2 copy
		exch 0 rlineto
		0 exch rlineto
		pop neg 0 rlineto
		closepath
} bind def

/ellipse_path {
	/ry exch def
	/rx exch def
	/y exch def
	/x exch def
	matrix currentmatrix
	newpath
	x y translate
	rx ry scale
	0 0 1 0 360 arc
	setmatrix
} bind def

/endpage { showpage } bind def
/showpage { } def

/layercolorseq
	[	% layer color sequence - darkest to lightest
		[0 0 0]
		[.2 .8 .8]
		[.4 .8 .8]
		[.6 .8 .8]
		[.8 .8 .8]
	]
def

/layerlen layercolorseq length def

/setlayer {/maxlayer exch def /curlayer exch def
	layercolorseq curlayer 1 sub layerlen mod get
	aload pop sethsbcolor
	/nodecolor {nopcolor} def
	/edgecolor {nopcolor} def
	/graphcolor {nopcolor} def
} bind def

/onlayer { curlayer ne {invis} if } def

/onlayers {
	/myupper exch def
	/mylower exch def
	curlayer mylower lt
	curlayer myupper gt
	or
	{invis} if
} def

/curlayer 0 def

%%EndResource
%%EndProlog
%%BeginSetup
14 default-font-family set_font
1 setmiterlimit
% /arrowlength 10 def
% /arrowwidth 5 def

% make sure pdfmark is harmless for PS-interpreters other than Distiller
/pdfmark where {pop} {userdict /pdfmark /cleartomark load put} ifelse
% make '<<' and '>>' safe on PS Level 1 devices
/languagelevel where {pop languagelevel}{1} ifelse
2 lt {
    userdict (<<) cvn ([) cvn load put
    userdict (>>) cvn ([) cvn load put
} if

%%EndSetup
setupLatin1
%%Page: 1 1
%%PageBoundingBox: 36 36 709 259
%%PageOrientation: Portrait
0 0 1 beginpage
gsave
36 36 673 223 boxprim clip newpath
1 1 set_scale 0 rotate 40 40 translate
% cluster_l1
gsave
1 setlinewidth
0 0 0 graphcolor
newpath 8 8 moveto
8 207 lineto
141 207 lineto
141 8 lineto
closepath stroke
0 0 0 graphcolor
14 /Times-Roman set_font
16 191.8 moveto 42 (Level 1) alignedtext
grestore
% cluster_l2
gsave
1 setlinewidth
0 0 0 graphcolor
newpath 154 16 moveto
154 207 lineto
287 207 lineto
287 16 lineto
closepath stroke
0 0 0 graphcolor
14 /Times-Roman set_font
162 191.8 moveto 42 (Level 2) alignedtext
grestore
% cluster_l3
gsave
1 setlinewidth
0 0 0 graphcolor
newpath 300 16 moveto
300 207 lineto
433 207 lineto
433 16 lineto
closepath stroke
0 0 0 graphcolor
14 /Times-Roman set_font
308 191.8 moveto 42 (Level 3) alignedtext
grestore
% cluster_l4
gsave
1 setlinewidth
0 0 0 graphcolor
newpath 446 16 moveto
446 207 lineto
579 207 lineto
579 16 lineto
closepath stroke
0 0 0 graphcolor
14 /Times-Roman set_font
454 191.8 moveto 42 (Level 4) alignedtext
grestore
% cluster_set
gsave
1 setlinewidth
0 0 0 graphcolor
newpath 587 16 moveto
587 199 lineto
657 199 lineto
657 16 lineto
closepath stroke
0 0 0 graphcolor
14 /Times-Roman set_font
595 183.8 moveto 28 (Stars) alignedtext
grestore
% n12
gsave
grestore
% n14
gsave
0 0.8 1 nodecolor
111 92 18 18 ellipse_path fill
1 setlinewidth
filled
0 0 0 nodecolor
111 92 18 18 ellipse_path stroke
1 setlinewidth
filled
0 0 0 nodecolor
111 92 22 22 ellipse_path stroke
grestore
% n22
gsave
0.33333 1 1 nodecolor
184 96 18 18 ellipse_path fill
1 setlinewidth
filled
0 0 0 nodecolor
184 96 18 18 ellipse_path stroke
grestore
% n14->n22
gsave
1 setlinewidth
0 0 0 edgecolor
newpath 133.3 93.2 moveto
140.41 93.6 148.43 94.05 155.91 94.47 curveto
stroke
0 0 0 edgecolor
newpath 155.81 97.97 moveto
165.99 95.04 lineto
156.21 90.98 lineto
closepath fill
1 setlinewidth
solid
0 0 0 edgecolor
newpath 155.81 97.97 moveto
165.99 95.04 lineto
156.21 90.98 lineto
closepath stroke
grestore
% n15
gsave
0 0.8 1 nodecolor
38 100 18 18 ellipse_path fill
1 setlinewidth
filled
0 0 0 nodecolor
38 100 18 18 ellipse_path stroke
1 setlinewidth
filled
0 0 0 nodecolor
38 100 22 22 ellipse_path stroke
grestore
% n15->n14
gsave
1 setlinewidth
0 0 0.75294 edgecolor
newpath 59.92 97.64 moveto
65.79 96.98 72.3 96.25 78.64 95.53 curveto
stroke
0 0 0.75294 edgecolor
newpath 79.44 98.97 moveto
88.99 94.37 lineto
78.66 92.01 lineto
closepath fill
1 setlinewidth
solid
0 0 0.75294 edgecolor
newpath 79.44 98.97 moveto
88.99 94.37 lineto
78.66 92.01 lineto
closepath stroke
grestore
% n16
gsave
0 0.8 1 nodecolor
111 154 18 18 ellipse_path fill
1 setlinewidth
filled
0 0 0 nodecolor
111 154 18 18 ellipse_path stroke
1 setlinewidth
filled
0 0 0 nodecolor
111 154 22 22 ellipse_path stroke
grestore
% n15->n16
gsave
1 setlinewidth
0 0 0.75294 edgecolor
newpath 56.19 113.07 moveto
64.82 119.64 75.44 127.72 84.97 134.96 curveto
stroke
0 0 0.75294 edgecolor
newpath 82.89 137.78 moveto
92.97 141.05 lineto
87.13 132.21 lineto
closepath fill
1 setlinewidth
solid
0 0 0.75294 edgecolor
newpath 82.89 137.78 moveto
92.97 141.05 lineto
87.13 132.21 lineto
closepath stroke
grestore
% n28
gsave
0.33333 1 1 nodecolor
184 42 18 18 ellipse_path fill
1 setlinewidth
filled
0 0 0 nodecolor
184 42 18 18 ellipse_path stroke
grestore
% n15->n28
gsave
1 setlinewidth
0 0 0 edgecolor
newpath 54.4 84.91 moveto
63.7 76.64 76.2 66.89 89 61 curveto
110.32 51.2 136.64 46.43 156.01 44.13 curveto
stroke
0 0 0 edgecolor
newpath 156.4 47.6 moveto
165.98 43.08 lineto
155.67 40.64 lineto
closepath fill
1 setlinewidth
solid
0 0 0 edgecolor
newpath 156.4 47.6 moveto
165.98 43.08 lineto
155.67 40.64 lineto
closepath stroke
grestore
% n25
gsave
0.33333 1 1 nodecolor
184 154 18 18 ellipse_path fill
1 setlinewidth
filled
0 0 0 nodecolor
184 154 18 18 ellipse_path stroke
1 setlinewidth
filled
0 0 0 nodecolor
184 154 22 22 ellipse_path stroke
grestore
% n16->n25
gsave
1 setlinewidth
0 0 0 edgecolor
newpath 133.3 154 moveto
139.06 154 145.41 154 151.6 154 curveto
stroke
0 0 0 edgecolor
newpath 151.71 157.5 moveto
161.71 154 lineto
151.71 150.5 lineto
closepath fill
1 setlinewidth
solid
0 0 0 edgecolor
newpath 151.71 157.5 moveto
161.71 154 lineto
151.71 150.5 lineto
closepath stroke
grestore
% n18
gsave
grestore
% n24
gsave
0.33333 1 1 nodecolor
257 92 18 18 ellipse_path fill
1 setlinewidth
filled
0 0 0 nodecolor
257 92 18 18 ellipse_path stroke
1 setlinewidth
filled
0 0 0 nodecolor
257 92 22 22 ellipse_path stroke
grestore
% n32
gsave
0.1 1 1 nodecolor
330 96 18 18 ellipse_path fill
1 setlinewidth
filled
0 0 0 nodecolor
330 96 18 18 ellipse_path stroke
grestore
% n24->n32
gsave
1 setlinewidth
0 0 0 edgecolor
newpath 279.3 93.2 moveto
286.41 93.6 294.43 94.05 301.91 94.47 curveto
stroke
0 0 0 edgecolor
newpath 301.81 97.97 moveto
311.99 95.04 lineto
302.21 90.98 lineto
closepath fill
1 setlinewidth
solid
0 0 0 edgecolor
newpath 301.81 97.97 moveto
311.99 95.04 lineto
302.21 90.98 lineto
closepath stroke
grestore
% n25->n24
gsave
1 setlinewidth
0 0 0.75294 edgecolor
newpath 201.11 139.93 moveto
210.28 131.92 221.94 121.74 232.15 112.83 curveto
stroke
0 0 0.75294 edgecolor
newpath 234.72 115.23 moveto
239.95 106.01 lineto
230.12 109.95 lineto
closepath fill
1 setlinewidth
solid
0 0 0.75294 edgecolor
newpath 234.72 115.23 moveto
239.95 106.01 lineto
230.12 109.95 lineto
closepath stroke
grestore
% n26
gsave
0.33333 1 1 nodecolor
257 154 18 18 ellipse_path fill
1 setlinewidth
filled
0 0 0 nodecolor
257 154 18 18 ellipse_path stroke
1 setlinewidth
filled
0 0 0 nodecolor
257 154 22 22 ellipse_path stroke
grestore
% n25->n26
gsave
1 setlinewidth
0 0 0.75294 edgecolor
newpath 206.3 154 moveto
212.06 154 218.41 154 224.6 154 curveto
stroke
0 0 0.75294 edgecolor
newpath 224.71 157.5 moveto
234.71 154 lineto
224.71 150.5 lineto
closepath fill
1 setlinewidth
solid
0 0 0.75294 edgecolor
newpath 224.71 157.5 moveto
234.71 154 lineto
224.71 150.5 lineto
closepath stroke
grestore
% n38
gsave
0.1 1 1 nodecolor
330 42 18 18 ellipse_path fill
1 setlinewidth
filled
0 0 0 nodecolor
330 42 18 18 ellipse_path stroke
grestore
% n25->n38
gsave
1 setlinewidth
0 0 0 edgecolor
newpath 197.49 136.6 moveto
200.42 132.25 203.43 127.52 206 123 curveto
221.02 96.55 211.09 79.8 235 61 curveto
253.86 46.17 281.27 42.02 301.63 41.22 curveto
stroke
0 0 0 edgecolor
newpath 301.89 44.71 moveto
311.84 41.07 lineto
301.79 37.71 lineto
closepath fill
1 setlinewidth
solid
0 0 0 edgecolor
newpath 301.89 44.71 moveto
311.84 41.07 lineto
301.79 37.71 lineto
closepath stroke
grestore
% n35
gsave
0.1 1 1 nodecolor
330 154 18 18 ellipse_path fill
1 setlinewidth
filled
0 0 0 nodecolor
330 154 18 18 ellipse_path stroke
1 setlinewidth
filled
0 0 0 nodecolor
330 154 22 22 ellipse_path stroke
grestore
% n26->n35
gsave
1 setlinewidth
0 0 0 edgecolor
newpath 279.3 154 moveto
285.06 154 291.41 154 297.6 154 curveto
stroke
0 0 0 edgecolor
newpath 297.71 157.5 moveto
307.71 154 lineto
297.71 150.5 lineto
closepath fill
1 setlinewidth
solid
0 0 0 edgecolor
newpath 297.71 157.5 moveto
307.71 154 lineto
297.71 150.5 lineto
closepath stroke
grestore
% n34
gsave
0.1 1 1 nodecolor
403 92 18 18 ellipse_path fill
1 setlinewidth
filled
0 0 0 nodecolor
403 92 18 18 ellipse_path stroke
1 setlinewidth
filled
0 0 0 nodecolor
403 92 22 22 ellipse_path stroke
grestore
% n42
gsave
0.625 0.8 1 nodecolor
476 96 18 18 ellipse_path fill
1 setlinewidth
filled
0 0 0 nodecolor
476 96 18 18 ellipse_path stroke
grestore
% n34->n42
gsave
1 setlinewidth
0 0 0 edgecolor
newpath 425.3 93.2 moveto
432.41 93.6 440.43 94.05 447.91 94.47 curveto
stroke
0 0 0 edgecolor
newpath 447.81 97.97 moveto
457.99 95.04 lineto
448.21 90.98 lineto
closepath fill
1 setlinewidth
solid
0 0 0 edgecolor
newpath 447.81 97.97 moveto
457.99 95.04 lineto
448.21 90.98 lineto
closepath stroke
grestore
% n35->n34
gsave
1 setlinewidth
0 0 0.75294 edgecolor
newpath 347.11 139.93 moveto
356.28 131.92 367.94 121.74 378.15 112.83 curveto
stroke
0 0 0.75294 edgecolor
newpath 380.72 115.23 moveto
385.95 106.01 lineto
376.12 109.95 lineto
closepath fill
1 setlinewidth
solid
0 0 0.75294 edgecolor
newpath 380.72 115.23 moveto
385.95 106.01 lineto
376.12 109.95 lineto
closepath stroke
grestore
% n36
gsave
0.1 1 1 nodecolor
403 154 18 18 ellipse_path fill
1 setlinewidth
filled
0 0 0 nodecolor
403 154 18 18 ellipse_path stroke
1 setlinewidth
filled
0 0 0 nodecolor
403 154 22 22 ellipse_path stroke
grestore
% n35->n36
gsave
1 setlinewidth
0 0 0.75294 edgecolor
newpath 352.3 154 moveto
358.06 154 364.41 154 370.6 154 curveto
stroke
0 0 0.75294 edgecolor
newpath 370.71 157.5 moveto
380.71 154 lineto
370.71 150.5 lineto
closepath fill
1 setlinewidth
solid
0 0 0.75294 edgecolor
newpath 370.71 157.5 moveto
380.71 154 lineto
370.71 150.5 lineto
closepath stroke
grestore
% n48
gsave
0.625 0.8 1 nodecolor
476 42 18 18 ellipse_path fill
1 setlinewidth
filled
0 0 0 nodecolor
476 42 18 18 ellipse_path stroke
grestore
% n35->n48
gsave
1 setlinewidth
0 0 0 edgecolor
newpath 343.49 136.6 moveto
346.42 132.25 349.43 127.52 352 123 curveto
367.02 96.55 357.09 79.8 381 61 curveto
399.86 46.17 427.27 42.02 447.63 41.22 curveto
stroke
0 0 0 edgecolor
newpath 447.89 44.71 moveto
457.84 41.07 lineto
447.79 37.71 lineto
closepath fill
1 setlinewidth
solid
0 0 0 edgecolor
newpath 447.89 44.71 moveto
457.84 41.07 lineto
447.79 37.71 lineto
closepath stroke
grestore
% n45
gsave
0.625 0.8 1 nodecolor
476 154 18 18 ellipse_path fill
1 setlinewidth
filled
0 0 0 nodecolor
476 154 18 18 ellipse_path stroke
1 setlinewidth
filled
0 0 0 nodecolor
476 154 22 22 ellipse_path stroke
grestore
% n36->n45
gsave
1 setlinewidth
0 0 0 edgecolor
newpath 425.3 154 moveto
431.06 154 437.41 154 443.6 154 curveto
stroke
0 0 0 edgecolor
newpath 443.71 157.5 moveto
453.71 154 lineto
443.71 150.5 lineto
closepath fill
1 setlinewidth
solid
0 0 0 edgecolor
newpath 443.71 157.5 moveto
453.71 154 lineto
443.71 150.5 lineto
closepath stroke
grestore
% n44
gsave
0.625 0.8 1 nodecolor
549 92 18 18 ellipse_path fill
1 setlinewidth
filled
0 0 0 nodecolor
549 92 18 18 ellipse_path stroke
1 setlinewidth
filled
0 0 0 nodecolor
549 92 22 22 ellipse_path stroke
grestore
% s3
gsave
0.83333 0.6 1 nodecolor
newpath 622 114 moveto
595 96 lineto
622 78 lineto
649 96 lineto
closepath fill
1 setlinewidth
filled
0 0 0 nodecolor
newpath 622 114 moveto
595 96 lineto
622 78 lineto
649 96 lineto
closepath stroke
1 setlinewidth
filled
0 0 0 nodecolor
newpath 604 102 moveto
604 90 lineto
stroke
1 setlinewidth
filled
0 0 0 nodecolor
newpath 613 84 moveto
631 84 lineto
stroke
1 setlinewidth
filled
0 0 0 nodecolor
newpath 640 90 moveto
640 102 lineto
stroke
1 setlinewidth
filled
0 0 0 nodecolor
newpath 631 108 moveto
613 108 lineto
stroke
grestore
% n44->s3
gsave
1 setlinewidth
0 1 1 edgecolor
newpath 571.3 93.2 moveto
576.23 93.48 581.6 93.78 586.92 94.08 curveto
stroke
0 1 1 edgecolor
newpath 586.8 97.58 moveto
596.98 94.65 lineto
587.19 90.59 lineto
closepath fill
1 setlinewidth
solid
0 1 1 edgecolor
newpath 586.8 97.58 moveto
596.98 94.65 lineto
587.19 90.59 lineto
closepath stroke
grestore
% n45->n44
gsave
1 setlinewidth
0 0 0.75294 edgecolor
newpath 493.11 139.93 moveto
502.28 131.92 513.94 121.74 524.15 112.83 curveto
stroke
0 0 0.75294 edgecolor
newpath 526.72 115.23 moveto
531.95 106.01 lineto
522.12 109.95 lineto
closepath fill
1 setlinewidth
solid
0 0 0.75294 edgecolor
newpath 526.72 115.23 moveto
531.95 106.01 lineto
522.12 109.95 lineto
closepath stroke
grestore
% n46
gsave
0.625 0.8 1 nodecolor
549 154 18 18 ellipse_path fill
1 setlinewidth
filled
0 0 0 nodecolor
549 154 18 18 ellipse_path stroke
1 setlinewidth
filled
0 0 0 nodecolor
549 154 22 22 ellipse_path stroke
grestore
% n45->n46
gsave
1 setlinewidth
0 0 0.75294 edgecolor
newpath 498.3 154 moveto
504.06 154 510.41 154 516.6 154 curveto
stroke
0 0 0.75294 edgecolor
newpath 516.71 157.5 moveto
526.71 154 lineto
516.71 150.5 lineto
closepath fill
1 setlinewidth
solid
0 0 0.75294 edgecolor
newpath 516.71 157.5 moveto
526.71 154 lineto
516.71 150.5 lineto
closepath stroke
grestore
% s1
gsave
0.83333 0.6 1 nodecolor
newpath 622 60 moveto
595 42 lineto
622 24 lineto
649 42 lineto
closepath fill
1 setlinewidth
filled
0 0 0 nodecolor
newpath 622 60 moveto
595 42 lineto
622 24 lineto
649 42 lineto
closepath stroke
1 setlinewidth
filled
0 0 0 nodecolor
newpath 604 48 moveto
604 36 lineto
stroke
1 setlinewidth
filled
0 0 0 nodecolor
newpath 613 30 moveto
631 30 lineto
stroke
1 setlinewidth
filled
0 0 0 nodecolor
newpath 640 36 moveto
640 48 lineto
stroke
1 setlinewidth
filled
0 0 0 nodecolor
newpath 631 54 moveto
613 54 lineto
stroke
grestore
% n45->s1
gsave
1 setlinewidth
0 1 1 edgecolor
newpath 489.49 136.6 moveto
492.42 132.25 495.43 127.52 498 123 curveto
513.02 96.55 503.09 79.8 527 61 curveto
543.56 47.97 566.73 43.18 585.91 41.67 curveto
stroke
0 1 1 edgecolor
newpath 586.29 45.16 moveto
596.1 41.13 lineto
585.93 38.16 lineto
closepath fill
1 setlinewidth
solid
0 1 1 edgecolor
newpath 586.29 45.16 moveto
596.1 41.13 lineto
585.93 38.16 lineto
closepath stroke
grestore
% s2
gsave
0.83333 0.6 1 nodecolor
newpath 622 168 moveto
595 150 lineto
622 132 lineto
649 150 lineto
closepath fill
1 setlinewidth
filled
0 0 0 nodecolor
newpath 622 168 moveto
595 150 lineto
622 132 lineto
649 150 lineto
closepath stroke
1 setlinewidth
filled
0 0 0 nodecolor
newpath 604 156 moveto
604 144 lineto
stroke
1 setlinewidth
filled
0 0 0 nodecolor
newpath 613 138 moveto
631 138 lineto
stroke
1 setlinewidth
filled
0 0 0 nodecolor
newpath 640 144 moveto
640 156 lineto
stroke
1 setlinewidth
filled
0 0 0 nodecolor
newpath 631 162 moveto
613 162 lineto
stroke
grestore
% n46->s2
gsave
1 setlinewidth
0 1 1 edgecolor
newpath 571.3 152.8 moveto
576.23 152.52 581.6 152.22 586.92 151.92 curveto
stroke
0 1 1 edgecolor
newpath 587.19 155.41 moveto
596.98 151.35 lineto
586.8 148.42 lineto
closepath fill
1 setlinewidth
solid
0 1 1 edgecolor
newpath 587.19 155.41 moveto
596.98 151.35 lineto
586.8 148.42 lineto
closepath stroke
grestore
endpage
showpage
grestore
%%PageTrailer
%%EndPage: 1
%%Trailer
%%Pages: 1
%%BoundingBox: 36 36 709 259
end
restore
%%EOF
