%!PS-Adobe-3.0
%%Creator: graphviz version 2.38.0 (20140413.2041)
%%Title: dot
%%Pages: (atend)
%%BoundingBox: (atend)
%%EndComments
save
%%BeginProlog
/DotDict 200 dict def
DotDict begin

/setupLatin1 {
mark
/EncodingVector 256 array def
 EncodingVector 0

ISOLatin1Encoding 0 255 getinterval putinterval
EncodingVector 45 /hyphen put

% Set up ISO Latin 1 character encoding
/starnetISO {
        dup dup findfont dup length dict begin
        { 1 index /FID ne { def }{ pop pop } ifelse
        } forall
        /Encoding EncodingVector def
        currentdict end definefont
} def
/Times-Roman starnetISO def
/Times-Italic starnetISO def
/Times-Bold starnetISO def
/Times-BoldItalic starnetISO def
/Helvetica starnetISO def
/Helvetica-Oblique starnetISO def
/Helvetica-Bold starnetISO def
/Helvetica-BoldOblique starnetISO def
/Courier starnetISO def
/Courier-Oblique starnetISO def
/Courier-Bold starnetISO def
/Courier-BoldOblique starnetISO def
cleartomark
} bind def

%%BeginResource: procset graphviz 0 0
/coord-font-family /Times-Roman def
/default-font-family /Times-Roman def
/coordfont coord-font-family findfont 8 scalefont def

/InvScaleFactor 1.0 def
/set_scale {
       dup 1 exch div /InvScaleFactor exch def
       scale
} bind def

% styles
/solid { [] 0 setdash } bind def
/dashed { [9 InvScaleFactor mul dup ] 0 setdash } bind def
/dotted { [1 InvScaleFactor mul 6 InvScaleFactor mul] 0 setdash } bind def
/invis {/fill {newpath} def /stroke {newpath} def /show {pop newpath} def} bind def
/bold { 2 setlinewidth } bind def
/filled { } bind def
/unfilled { } bind def
/rounded { } bind def
/diagonals { } bind def
/tapered { } bind def

% hooks for setting color 
/nodecolor { sethsbcolor } bind def
/edgecolor { sethsbcolor } bind def
/graphcolor { sethsbcolor } bind def
/nopcolor {pop pop pop} bind def

/beginpage {	% i j npages
	/npages exch def
	/j exch def
	/i exch def
	/str 10 string def
	npages 1 gt {
		gsave
			coordfont setfont
			0 0 moveto
			(\() show i str cvs show (,) show j str cvs show (\)) show
		grestore
	} if
} bind def

/set_font {
	findfont exch
	scalefont setfont
} def

% draw text fitted to its expected width
/alignedtext {			% width text
	/text exch def
	/width exch def
	gsave
		width 0 gt {
			[] 0 setdash
			text stringwidth pop width exch sub text length div 0 text ashow
		} if
	grestore
} def

/boxprim {				% xcorner ycorner xsize ysize
		4 2 roll
		moveto
		2 copy
		exch 0 rlineto
		0 exch rlineto
		pop neg 0 rlineto
		closepath
} bind def

/ellipse_path {
	/ry exch def
	/rx exch def
	/y exch def
	/x exch def
	matrix currentmatrix
	newpath
	x y translate
	rx ry scale
	0 0 1 0 360 arc
	setmatrix
} bind def

/endpage { showpage } bind def
/showpage { } def

/layercolorseq
	[	% layer color sequence - darkest to lightest
		[0 0 0]
		[.2 .8 .8]
		[.4 .8 .8]
		[.6 .8 .8]
		[.8 .8 .8]
	]
def

/layerlen layercolorseq length def

/setlayer {/maxlayer exch def /curlayer exch def
	layercolorseq curlayer 1 sub layerlen mod get
	aload pop sethsbcolor
	/nodecolor {nopcolor} def
	/edgecolor {nopcolor} def
	/graphcolor {nopcolor} def
} bind def

/onlayer { curlayer ne {invis} if } def

/onlayers {
	/myupper exch def
	/mylower exch def
	curlayer mylower lt
	curlayer myupper gt
	or
	{invis} if
} def

/curlayer 0 def

%%EndResource
%%EndProlog
%%BeginSetup
14 default-font-family set_font
1 setmiterlimit
% /arrowlength 10 def
% /arrowwidth 5 def

% make sure pdfmark is harmless for PS-interpreters other than Distiller
/pdfmark where {pop} {userdict /pdfmark /cleartomark load put} ifelse
% make '<<' and '>>' safe on PS Level 1 devices
/languagelevel where {pop languagelevel}{1} ifelse
2 lt {
    userdict (<<) cvn ([) cvn load put
    userdict (>>) cvn ([) cvn load put
} if

%%EndSetup
setupLatin1
%%Page: 1 1
%%PageBoundingBox: 36 36 442 277
%%PageOrientation: Portrait
0 0 1 beginpage
gsave
36 36 406 241 boxprim clip newpath
1 1 set_scale 0 rotate 40 40 translate
% cluster_l1
gsave
1 setlinewidth
0 0 0 graphcolor
newpath 8 8 moveto
8 225 lineto
78 225 lineto
78 8 lineto
closepath stroke
0 0 0 graphcolor
14 /Times-Roman set_font
16 209.8 moveto 42 (Level 1) alignedtext
grestore
% cluster_l2
gsave
1 setlinewidth
0 0 0 graphcolor
newpath 86 8 moveto
86 225 lineto
156 225 lineto
156 8 lineto
closepath stroke
0 0 0 graphcolor
14 /Times-Roman set_font
94 209.8 moveto 42 (Level 2) alignedtext
grestore
% cluster_l3
gsave
1 setlinewidth
0 0 0 graphcolor
newpath 164 8 moveto
164 225 lineto
234 225 lineto
234 8 lineto
closepath stroke
0 0 0 graphcolor
14 /Times-Roman set_font
172 209.8 moveto 42 (Level 3) alignedtext
grestore
% cluster_l4
gsave
1 setlinewidth
0 0 0 graphcolor
newpath 242 8 moveto
242 225 lineto
312 225 lineto
312 8 lineto
closepath stroke
0 0 0 graphcolor
14 /Times-Roman set_font
250 209.8 moveto 42 (Level 4) alignedtext
grestore
% cluster_set
gsave
1 setlinewidth
0 0 0 graphcolor
newpath 320 25 moveto
320 208 lineto
390 208 lineto
390 25 lineto
closepath stroke
0 0 0 graphcolor
14 /Times-Roman set_font
328 192.8 moveto 28 (Stars) alignedtext
grestore
% n11
gsave
grestore
% n12
gsave
0 0.8 1 nodecolor
newpath 16 70.5 moveto
16 139.5 lineto
70 139.5 lineto
70 70.5 lineto
closepath fill
1 setlinewidth
filled
0 0 0 nodecolor
newpath 16 70.5 moveto
16 139.5 lineto
70 139.5 lineto
70 70.5 lineto
closepath stroke
0 0 0 nodecolor
14 /Times-Roman set_font
41 124.3 moveto 4 ( ) alignedtext
1 setlinewidth
filled
0 0 0 nodecolor
newpath 16 116.5 moveto
70 116.5 lineto
stroke
0 0 0 nodecolor
14 /Times-Roman set_font
41 101.3 moveto 4 ( ) alignedtext
1 setlinewidth
filled
0 0 0 nodecolor
newpath 16 93.5 moveto
70 93.5 lineto
stroke
0 0 0 nodecolor
14 /Times-Roman set_font
41 78.3 moveto 4 ( ) alignedtext
grestore
% n21
gsave
0.33333 0.6 1 nodecolor
121 34 18 18 ellipse_path fill
1 setlinewidth
filled
0 0 0 nodecolor
121 34 18 18 ellipse_path stroke
grestore
% n12->n21
gsave
1 setlinewidth
0 0 0 edgecolor
newpath 71 82 moveto
82.47 82 78.1 69.31 86 61 curveto
89.51 57.3 93.55 53.67 97.58 50.33 curveto
stroke
0 0 0 edgecolor
newpath 99.99 52.89 moveto
105.69 43.96 lineto
95.66 47.39 lineto
closepath fill
1 setlinewidth
solid
0 0 0 edgecolor
newpath 99.99 52.89 moveto
105.69 43.96 lineto
95.66 47.39 lineto
closepath stroke
grestore
% n22
gsave
0.33333 0.6 1 nodecolor
newpath 94 70.5 moveto
94 139.5 lineto
148 139.5 lineto
148 70.5 lineto
closepath fill
1 setlinewidth
filled
0 0 0 nodecolor
newpath 94 70.5 moveto
94 139.5 lineto
148 139.5 lineto
148 70.5 lineto
closepath stroke
0 0 0 nodecolor
14 /Times-Roman set_font
119 124.3 moveto 4 ( ) alignedtext
1 setlinewidth
filled
0 0 0 nodecolor
newpath 94 116.5 moveto
148 116.5 lineto
stroke
0 0 0 nodecolor
14 /Times-Roman set_font
119 101.3 moveto 4 ( ) alignedtext
1 setlinewidth
filled
0 0 0 nodecolor
newpath 94 93.5 moveto
148 93.5 lineto
stroke
0 0 0 nodecolor
14 /Times-Roman set_font
119 78.3 moveto 4 ( ) alignedtext
grestore
% n12->n22
gsave
1 setlinewidth
0 0 0 edgecolor
newpath 71 105 moveto
75.05 105 79.28 105 83.5 105 curveto
stroke
0 0 0 edgecolor
newpath 83.81 108.5 moveto
93.81 105 lineto
83.81 101.5 lineto
closepath fill
1 setlinewidth
solid
0 0 0 edgecolor
newpath 83.81 108.5 moveto
93.81 105 lineto
83.81 101.5 lineto
closepath stroke
grestore
% n23
gsave
0.33333 0.6 1 nodecolor
121 176 18 18 ellipse_path fill
1 setlinewidth
filled
0 0 0 nodecolor
121 176 18 18 ellipse_path stroke
grestore
% n12->n23
gsave
1 setlinewidth
0 0 0 edgecolor
newpath 71 128 moveto
82.47 128 78.1 140.69 86 149 curveto
89.51 152.7 93.55 156.33 97.58 159.67 curveto
stroke
0 0 0 edgecolor
newpath 95.66 162.61 moveto
105.69 166.04 lineto
99.99 157.11 lineto
closepath fill
1 setlinewidth
solid
0 0 0 edgecolor
newpath 95.66 162.61 moveto
105.69 166.04 lineto
99.99 157.11 lineto
closepath stroke
grestore
% n13
gsave
grestore
% n31
gsave
0.1 1 1 nodecolor
199 34 18 18 ellipse_path fill
1 setlinewidth
filled
0 0 0 nodecolor
199 34 18 18 ellipse_path stroke
grestore
% n22->n31
gsave
1 setlinewidth
0 0 0 edgecolor
newpath 149 82 moveto
160.47 82 156.1 69.31 164 61 curveto
167.51 57.3 171.55 53.67 175.58 50.33 curveto
stroke
0 0 0 edgecolor
newpath 177.99 52.89 moveto
183.69 43.96 lineto
173.66 47.39 lineto
closepath fill
1 setlinewidth
solid
0 0 0 edgecolor
newpath 177.99 52.89 moveto
183.69 43.96 lineto
173.66 47.39 lineto
closepath stroke
grestore
% n32
gsave
0.1 1 1 nodecolor
newpath 172 70.5 moveto
172 139.5 lineto
226 139.5 lineto
226 70.5 lineto
closepath fill
1 setlinewidth
filled
0 0 0 nodecolor
newpath 172 70.5 moveto
172 139.5 lineto
226 139.5 lineto
226 70.5 lineto
closepath stroke
0 0 0 nodecolor
14 /Times-Roman set_font
197 124.3 moveto 4 ( ) alignedtext
1 setlinewidth
filled
0 0 0 nodecolor
newpath 172 116.5 moveto
226 116.5 lineto
stroke
0 0 0 nodecolor
14 /Times-Roman set_font
197 101.3 moveto 4 ( ) alignedtext
1 setlinewidth
filled
0 0 0 nodecolor
newpath 172 93.5 moveto
226 93.5 lineto
stroke
0 0 0 nodecolor
14 /Times-Roman set_font
197 78.3 moveto 4 ( ) alignedtext
grestore
% n22->n32
gsave
1 setlinewidth
0 0 0 edgecolor
newpath 149 105 moveto
153.05 105 157.28 105 161.5 105 curveto
stroke
0 0 0 edgecolor
newpath 161.81 108.5 moveto
171.81 105 lineto
161.81 101.5 lineto
closepath fill
1 setlinewidth
solid
0 0 0 edgecolor
newpath 161.81 108.5 moveto
171.81 105 lineto
161.81 101.5 lineto
closepath stroke
grestore
% n33
gsave
0.1 1 1 nodecolor
199 176 18 18 ellipse_path fill
1 setlinewidth
filled
0 0 0 nodecolor
199 176 18 18 ellipse_path stroke
grestore
% n22->n33
gsave
1 setlinewidth
0 0 0 edgecolor
newpath 149 128 moveto
160.47 128 156.1 140.69 164 149 curveto
167.51 152.7 171.55 156.33 175.58 159.67 curveto
stroke
0 0 0 edgecolor
newpath 173.66 162.61 moveto
183.69 166.04 lineto
177.99 157.11 lineto
closepath fill
1 setlinewidth
solid
0 0 0 edgecolor
newpath 173.66 162.61 moveto
183.69 166.04 lineto
177.99 157.11 lineto
closepath stroke
grestore
% n41
gsave
0.625 0.8 1 nodecolor
277 34 18 18 ellipse_path fill
1 setlinewidth
filled
0 0 0 nodecolor
277 34 18 18 ellipse_path stroke
grestore
% n32->n41
gsave
1 setlinewidth
0 0 0 edgecolor
newpath 227 82 moveto
238.47 82 234.1 69.31 242 61 curveto
245.51 57.3 249.55 53.67 253.58 50.33 curveto
stroke
0 0 0 edgecolor
newpath 255.99 52.89 moveto
261.69 43.96 lineto
251.66 47.39 lineto
closepath fill
1 setlinewidth
solid
0 0 0 edgecolor
newpath 255.99 52.89 moveto
261.69 43.96 lineto
251.66 47.39 lineto
closepath stroke
grestore
% n42
gsave
0.625 0.8 1 nodecolor
newpath 250 70.5 moveto
250 139.5 lineto
304 139.5 lineto
304 70.5 lineto
closepath fill
1 setlinewidth
filled
0 0 0 nodecolor
newpath 250 70.5 moveto
250 139.5 lineto
304 139.5 lineto
304 70.5 lineto
closepath stroke
0 0 0 nodecolor
14 /Times-Roman set_font
275 124.3 moveto 4 ( ) alignedtext
1 setlinewidth
filled
0 0 0 nodecolor
newpath 250 116.5 moveto
304 116.5 lineto
stroke
0 0 0 nodecolor
14 /Times-Roman set_font
275 101.3 moveto 4 ( ) alignedtext
1 setlinewidth
filled
0 0 0 nodecolor
newpath 250 93.5 moveto
304 93.5 lineto
stroke
0 0 0 nodecolor
14 /Times-Roman set_font
275 78.3 moveto 4 ( ) alignedtext
grestore
% n32->n42
gsave
1 setlinewidth
0 0 0 edgecolor
newpath 227 105 moveto
231.05 105 235.28 105 239.5 105 curveto
stroke
0 0 0 edgecolor
newpath 239.81 108.5 moveto
249.81 105 lineto
239.81 101.5 lineto
closepath fill
1 setlinewidth
solid
0 0 0 edgecolor
newpath 239.81 108.5 moveto
249.81 105 lineto
239.81 101.5 lineto
closepath stroke
grestore
% n43
gsave
0.625 0.8 1 nodecolor
277 176 18 18 ellipse_path fill
1 setlinewidth
filled
0 0 0 nodecolor
277 176 18 18 ellipse_path stroke
grestore
% n32->n43
gsave
1 setlinewidth
0 0 0 edgecolor
newpath 227 128 moveto
238.47 128 234.1 140.69 242 149 curveto
245.51 152.7 249.55 156.33 253.58 159.67 curveto
stroke
0 0 0 edgecolor
newpath 251.66 162.61 moveto
261.69 166.04 lineto
255.99 157.11 lineto
closepath fill
1 setlinewidth
solid
0 0 0 edgecolor
newpath 251.66 162.61 moveto
261.69 166.04 lineto
255.99 157.11 lineto
closepath stroke
grestore
% s1
gsave
0.83333 0.6 1 nodecolor
newpath 355 177 moveto
328 159 lineto
355 141 lineto
382 159 lineto
closepath fill
1 setlinewidth
filled
0 0 0 nodecolor
newpath 355 177 moveto
328 159 lineto
355 141 lineto
382 159 lineto
closepath stroke
1 setlinewidth
filled
0 0 0 nodecolor
newpath 337 165 moveto
337 153 lineto
stroke
1 setlinewidth
filled
0 0 0 nodecolor
newpath 346 147 moveto
364 147 lineto
stroke
1 setlinewidth
filled
0 0 0 nodecolor
newpath 373 153 moveto
373 165 lineto
stroke
1 setlinewidth
filled
0 0 0 nodecolor
newpath 364 171 moveto
346 171 lineto
stroke
grestore
% n42->s1
gsave
1 setlinewidth
0 1 1 edgecolor
newpath 304.15 123.58 moveto
313.56 130.27 324.04 137.71 332.95 144.04 curveto
stroke
0 1 1 edgecolor
newpath 331.07 147 moveto
341.24 149.94 lineto
335.12 141.29 lineto
closepath fill
1 setlinewidth
solid
0 1 1 edgecolor
newpath 331.07 147 moveto
341.24 149.94 lineto
335.12 141.29 lineto
closepath stroke
grestore
% s2
gsave
0.83333 0.6 1 nodecolor
newpath 355 123 moveto
328 105 lineto
355 87 lineto
382 105 lineto
closepath fill
1 setlinewidth
filled
0 0 0 nodecolor
newpath 355 123 moveto
328 105 lineto
355 87 lineto
382 105 lineto
closepath stroke
1 setlinewidth
filled
0 0 0 nodecolor
newpath 337 111 moveto
337 99 lineto
stroke
1 setlinewidth
filled
0 0 0 nodecolor
newpath 346 93 moveto
364 93 lineto
stroke
1 setlinewidth
filled
0 0 0 nodecolor
newpath 373 99 moveto
373 111 lineto
stroke
1 setlinewidth
filled
0 0 0 nodecolor
newpath 364 117 moveto
346 117 lineto
stroke
grestore
% n42->s2
gsave
1 setlinewidth
0 1 1 edgecolor
newpath 304.15 105 moveto
308.45 105 312.98 105 317.47 105 curveto
stroke
0 1 1 edgecolor
newpath 317.8 108.5 moveto
327.8 105 lineto
317.8 101.5 lineto
closepath fill
1 setlinewidth
solid
0 1 1 edgecolor
newpath 317.8 108.5 moveto
327.8 105 lineto
317.8 101.5 lineto
closepath stroke
grestore
% s3
gsave
0.83333 0.6 1 nodecolor
newpath 355 69 moveto
328 51 lineto
355 33 lineto
382 51 lineto
closepath fill
1 setlinewidth
filled
0 0 0 nodecolor
newpath 355 69 moveto
328 51 lineto
355 33 lineto
382 51 lineto
closepath stroke
1 setlinewidth
filled
0 0 0 nodecolor
newpath 337 57 moveto
337 45 lineto
stroke
1 setlinewidth
filled
0 0 0 nodecolor
newpath 346 39 moveto
364 39 lineto
stroke
1 setlinewidth
filled
0 0 0 nodecolor
newpath 373 45 moveto
373 57 lineto
stroke
1 setlinewidth
filled
0 0 0 nodecolor
newpath 364 63 moveto
346 63 lineto
stroke
grestore
% n42->s3
gsave
1 setlinewidth
0 1 1 edgecolor
newpath 304.15 86.42 moveto
313.56 79.73 324.04 72.29 332.95 65.96 curveto
stroke
0 1 1 edgecolor
newpath 335.12 68.71 moveto
341.24 60.06 lineto
331.07 63 lineto
closepath fill
1 setlinewidth
solid
0 1 1 edgecolor
newpath 335.12 68.71 moveto
341.24 60.06 lineto
331.07 63 lineto
closepath stroke
grestore
endpage
showpage
grestore
%%PageTrailer
%%EndPage: 1
%%Trailer
%%Pages: 1
%%BoundingBox: 36 36 442 277
end
restore
%%EOF
