<?xml version="1.0" encoding="UTF-8"?>
<dia:diagram xmlns:dia="http://www.lysator.liu.se/~alla/dia/">
  <dia:diagramdata>
    <dia:attribute name="background">
      <dia:color val="#ffffff"/>
    </dia:attribute>
    <dia:attribute name="pagebreak">
      <dia:color val="#000099"/>
    </dia:attribute>
    <dia:attribute name="paper">
      <dia:composite type="paper">
        <dia:attribute name="name">
          <dia:string>#A4#</dia:string>
        </dia:attribute>
        <dia:attribute name="tmargin">
          <dia:real val="1.5"/>
        </dia:attribute>
        <dia:attribute name="bmargin">
          <dia:real val="1.5"/>
        </dia:attribute>
        <dia:attribute name="lmargin">
          <dia:real val="1.5"/>
        </dia:attribute>
        <dia:attribute name="rmargin">
          <dia:real val="1.5"/>
        </dia:attribute>
        <dia:attribute name="is_portrait">
          <dia:boolean val="true"/>
        </dia:attribute>
        <dia:attribute name="scaling">
          <dia:real val="0.17000000178813934"/>
        </dia:attribute>
        <dia:attribute name="fitto">
          <dia:boolean val="false"/>
        </dia:attribute>
      </dia:composite>
    </dia:attribute>
    <dia:attribute name="grid">
      <dia:composite type="grid">
        <dia:attribute name="width_x">
          <dia:real val="1"/>
        </dia:attribute>
        <dia:attribute name="width_y">
          <dia:real val="1"/>
        </dia:attribute>
        <dia:attribute name="visible_x">
          <dia:int val="1"/>
        </dia:attribute>
        <dia:attribute name="visible_y">
          <dia:int val="1"/>
        </dia:attribute>
        <dia:composite type="color"/>
      </dia:composite>
    </dia:attribute>
    <dia:attribute name="color">
      <dia:color val="#d8e5e5"/>
    </dia:attribute>
    <dia:attribute name="guides">
      <dia:composite type="guides">
        <dia:attribute name="hguides"/>
        <dia:attribute name="vguides"/>
      </dia:composite>
    </dia:attribute>
  </dia:diagramdata>
  <dia:layer name="Background" visible="true" active="true">
    <dia:object type="UML - Class" version="0" id="O0">
      <dia:attribute name="obj_pos">
        <dia:point val="1,1"/>
      </dia:attribute>
      <dia:attribute name="obj_bb">
        <dia:rectangle val="0.95,0.95;28.5,13.25"/>
      </dia:attribute>
      <dia:attribute name="elem_corner">
        <dia:point val="1,1"/>
      </dia:attribute>
      <dia:attribute name="elem_width">
        <dia:real val="27.449999999999999"/>
      </dia:attribute>
      <dia:attribute name="elem_height">
        <dia:real val="12.199999999999999"/>
      </dia:attribute>
      <dia:attribute name="name">
        <dia:string>#Node#</dia:string>
      </dia:attribute>
      <dia:attribute name="stereotype">
        <dia:string>##</dia:string>
      </dia:attribute>
      <dia:attribute name="comment">
        <dia:string>##</dia:string>
      </dia:attribute>
      <dia:attribute name="abstract">
        <dia:boolean val="false"/>
      </dia:attribute>
      <dia:attribute name="suppress_attributes">
        <dia:boolean val="false"/>
      </dia:attribute>
      <dia:attribute name="suppress_operations">
        <dia:boolean val="false"/>
      </dia:attribute>
      <dia:attribute name="visible_attributes">
        <dia:boolean val="true"/>
      </dia:attribute>
      <dia:attribute name="visible_operations">
        <dia:boolean val="true"/>
      </dia:attribute>
      <dia:attribute name="visible_comments">
        <dia:boolean val="false"/>
      </dia:attribute>
      <dia:attribute name="wrap_operations">
        <dia:boolean val="false"/>
      </dia:attribute>
      <dia:attribute name="wrap_after_char">
        <dia:int val="40"/>
      </dia:attribute>
      <dia:attribute name="comment_line_length">
        <dia:int val="40"/>
      </dia:attribute>
      <dia:attribute name="comment_tagging">
        <dia:boolean val="false"/>
      </dia:attribute>
      <dia:attribute name="line_width">
        <dia:real val="0.10000000000000001"/>
      </dia:attribute>
      <dia:attribute name="line_color">
        <dia:color val="#000000"/>
      </dia:attribute>
      <dia:attribute name="fill_color">
        <dia:color val="#ffffff"/>
      </dia:attribute>
      <dia:attribute name="text_color">
        <dia:color val="#000000"/>
      </dia:attribute>
      <dia:attribute name="normal_font">
        <dia:font family="monospace" style="0" name="Courier"/>
      </dia:attribute>
      <dia:attribute name="abstract_font">
        <dia:font family="monospace" style="88" name="Courier-BoldOblique"/>
      </dia:attribute>
      <dia:attribute name="polymorphic_font">
        <dia:font family="monospace" style="8" name="Courier-Oblique"/>
      </dia:attribute>
      <dia:attribute name="classname_font">
        <dia:font family="sans" style="80" name="Helvetica-Bold"/>
      </dia:attribute>
      <dia:attribute name="abstract_classname_font">
        <dia:font family="sans" style="88" name="Helvetica-BoldOblique"/>
      </dia:attribute>
      <dia:attribute name="comment_font">
        <dia:font family="sans" style="8" name="Helvetica-Oblique"/>
      </dia:attribute>
      <dia:attribute name="normal_font_height">
        <dia:real val="0.80000000000000004"/>
      </dia:attribute>
      <dia:attribute name="polymorphic_font_height">
        <dia:real val="0.80000000000000004"/>
      </dia:attribute>
      <dia:attribute name="abstract_font_height">
        <dia:real val="0.80000000000000004"/>
      </dia:attribute>
      <dia:attribute name="classname_font_height">
        <dia:real val="1"/>
      </dia:attribute>
      <dia:attribute name="abstract_classname_font_height">
        <dia:real val="1"/>
      </dia:attribute>
      <dia:attribute name="comment_font_height">
        <dia:real val="0.69999999999999996"/>
      </dia:attribute>
      <dia:attribute name="attributes">
        <dia:composite type="umlattribute">
          <dia:attribute name="name">
            <dia:string>#value#</dia:string>
          </dia:attribute>
          <dia:attribute name="type">
            <dia:string>#realNumber#</dia:string>
          </dia:attribute>
          <dia:attribute name="value">
            <dia:string>##</dia:string>
          </dia:attribute>
          <dia:attribute name="comment">
            <dia:string>##</dia:string>
          </dia:attribute>
          <dia:attribute name="visibility">
            <dia:enum val="0"/>
          </dia:attribute>
          <dia:attribute name="abstract">
            <dia:boolean val="false"/>
          </dia:attribute>
          <dia:attribute name="class_scope">
            <dia:boolean val="false"/>
          </dia:attribute>
        </dia:composite>
        <dia:composite type="umlattribute">
          <dia:attribute name="name">
            <dia:string>#content#</dia:string>
          </dia:attribute>
          <dia:attribute name="type">
            <dia:string>#nodeContent *#</dia:string>
          </dia:attribute>
          <dia:attribute name="value">
            <dia:string>##</dia:string>
          </dia:attribute>
          <dia:attribute name="comment">
            <dia:string>##</dia:string>
          </dia:attribute>
          <dia:attribute name="visibility">
            <dia:enum val="0"/>
          </dia:attribute>
          <dia:attribute name="abstract">
            <dia:boolean val="false"/>
          </dia:attribute>
          <dia:attribute name="class_scope">
            <dia:boolean val="false"/>
          </dia:attribute>
        </dia:composite>
        <dia:composite type="umlattribute">
          <dia:attribute name="name">
            <dia:string>#depth#</dia:string>
          </dia:attribute>
          <dia:attribute name="type">
            <dia:string>#unsigned1Byte#</dia:string>
          </dia:attribute>
          <dia:attribute name="value">
            <dia:string>##</dia:string>
          </dia:attribute>
          <dia:attribute name="comment">
            <dia:string>##</dia:string>
          </dia:attribute>
          <dia:attribute name="visibility">
            <dia:enum val="0"/>
          </dia:attribute>
          <dia:attribute name="abstract">
            <dia:boolean val="false"/>
          </dia:attribute>
          <dia:attribute name="class_scope">
            <dia:boolean val="false"/>
          </dia:attribute>
        </dia:composite>
        <dia:composite type="umlattribute">
          <dia:attribute name="name">
            <dia:string>#parent#</dia:string>
          </dia:attribute>
          <dia:attribute name="type">
            <dia:string>#Node *#</dia:string>
          </dia:attribute>
          <dia:attribute name="value">
            <dia:string>##</dia:string>
          </dia:attribute>
          <dia:attribute name="comment">
            <dia:string>##</dia:string>
          </dia:attribute>
          <dia:attribute name="visibility">
            <dia:enum val="0"/>
          </dia:attribute>
          <dia:attribute name="abstract">
            <dia:boolean val="false"/>
          </dia:attribute>
          <dia:attribute name="class_scope">
            <dia:boolean val="false"/>
          </dia:attribute>
        </dia:composite>
        <dia:composite type="umlattribute">
          <dia:attribute name="name">
            <dia:string>#left#</dia:string>
          </dia:attribute>
          <dia:attribute name="type">
            <dia:string>#Node *#</dia:string>
          </dia:attribute>
          <dia:attribute name="value">
            <dia:string>##</dia:string>
          </dia:attribute>
          <dia:attribute name="comment">
            <dia:string>##</dia:string>
          </dia:attribute>
          <dia:attribute name="visibility">
            <dia:enum val="0"/>
          </dia:attribute>
          <dia:attribute name="abstract">
            <dia:boolean val="false"/>
          </dia:attribute>
          <dia:attribute name="class_scope">
            <dia:boolean val="false"/>
          </dia:attribute>
        </dia:composite>
        <dia:composite type="umlattribute">
          <dia:attribute name="name">
            <dia:string>#right#</dia:string>
          </dia:attribute>
          <dia:attribute name="type">
            <dia:string>#Node *#</dia:string>
          </dia:attribute>
          <dia:attribute name="value">
            <dia:string>##</dia:string>
          </dia:attribute>
          <dia:attribute name="comment">
            <dia:string>##</dia:string>
          </dia:attribute>
          <dia:attribute name="visibility">
            <dia:enum val="0"/>
          </dia:attribute>
          <dia:attribute name="abstract">
            <dia:boolean val="false"/>
          </dia:attribute>
          <dia:attribute name="class_scope">
            <dia:boolean val="false"/>
          </dia:attribute>
        </dia:composite>
        <dia:composite type="umlattribute">
          <dia:attribute name="name">
            <dia:string>#next#</dia:string>
          </dia:attribute>
          <dia:attribute name="type">
            <dia:string>#Node *#</dia:string>
          </dia:attribute>
          <dia:attribute name="value">
            <dia:string>##</dia:string>
          </dia:attribute>
          <dia:attribute name="comment">
            <dia:string>##</dia:string>
          </dia:attribute>
          <dia:attribute name="visibility">
            <dia:enum val="0"/>
          </dia:attribute>
          <dia:attribute name="abstract">
            <dia:boolean val="false"/>
          </dia:attribute>
          <dia:attribute name="class_scope">
            <dia:boolean val="false"/>
          </dia:attribute>
        </dia:composite>
        <dia:composite type="umlattribute">
          <dia:attribute name="name">
            <dia:string>#FE#</dia:string>
          </dia:attribute>
          <dia:attribute name="type">
            <dia:string>#signed1Byte#</dia:string>
          </dia:attribute>
          <dia:attribute name="value">
            <dia:string>##</dia:string>
          </dia:attribute>
          <dia:attribute name="comment">
            <dia:string>##</dia:string>
          </dia:attribute>
          <dia:attribute name="visibility">
            <dia:enum val="0"/>
          </dia:attribute>
          <dia:attribute name="abstract">
            <dia:boolean val="false"/>
          </dia:attribute>
          <dia:attribute name="class_scope">
            <dia:boolean val="false"/>
          </dia:attribute>
        </dia:composite>
      </dia:attribute>
      <dia:attribute name="operations">
        <dia:composite type="umloperation">
          <dia:attribute name="name">
            <dia:string>#Node#</dia:string>
          </dia:attribute>
          <dia:attribute name="stereotype">
            <dia:string>##</dia:string>
          </dia:attribute>
          <dia:attribute name="type">
            <dia:string>##</dia:string>
          </dia:attribute>
          <dia:attribute name="visibility">
            <dia:enum val="0"/>
          </dia:attribute>
          <dia:attribute name="comment">
            <dia:string>##</dia:string>
          </dia:attribute>
          <dia:attribute name="abstract">
            <dia:boolean val="false"/>
          </dia:attribute>
          <dia:attribute name="inheritance_type">
            <dia:enum val="2"/>
          </dia:attribute>
          <dia:attribute name="query">
            <dia:boolean val="false"/>
          </dia:attribute>
          <dia:attribute name="class_scope">
            <dia:boolean val="false"/>
          </dia:attribute>
          <dia:attribute name="parameters"/>
        </dia:composite>
        <dia:composite type="umloperation">
          <dia:attribute name="name">
            <dia:string>#Node#</dia:string>
          </dia:attribute>
          <dia:attribute name="stereotype">
            <dia:string>##</dia:string>
          </dia:attribute>
          <dia:attribute name="type">
            <dia:string>##</dia:string>
          </dia:attribute>
          <dia:attribute name="visibility">
            <dia:enum val="0"/>
          </dia:attribute>
          <dia:attribute name="comment">
            <dia:string>##</dia:string>
          </dia:attribute>
          <dia:attribute name="abstract">
            <dia:boolean val="false"/>
          </dia:attribute>
          <dia:attribute name="inheritance_type">
            <dia:enum val="2"/>
          </dia:attribute>
          <dia:attribute name="query">
            <dia:boolean val="false"/>
          </dia:attribute>
          <dia:attribute name="class_scope">
            <dia:boolean val="false"/>
          </dia:attribute>
          <dia:attribute name="parameters">
            <dia:composite type="umlparameter">
              <dia:attribute name="name">
                <dia:string>#&amp;value#</dia:string>
              </dia:attribute>
              <dia:attribute name="type">
                <dia:string>#const realNumber#</dia:string>
              </dia:attribute>
              <dia:attribute name="value">
                <dia:string>##</dia:string>
              </dia:attribute>
              <dia:attribute name="comment">
                <dia:string>##</dia:string>
              </dia:attribute>
              <dia:attribute name="kind">
                <dia:enum val="0"/>
              </dia:attribute>
            </dia:composite>
            <dia:composite type="umlparameter">
              <dia:attribute name="name">
                <dia:string>#&amp;depth#</dia:string>
              </dia:attribute>
              <dia:attribute name="type">
                <dia:string>#const unsigned1Byte#</dia:string>
              </dia:attribute>
              <dia:attribute name="value">
                <dia:string>##</dia:string>
              </dia:attribute>
              <dia:attribute name="comment">
                <dia:string>##</dia:string>
              </dia:attribute>
              <dia:attribute name="kind">
                <dia:enum val="0"/>
              </dia:attribute>
            </dia:composite>
          </dia:attribute>
        </dia:composite>
        <dia:composite type="umloperation">
          <dia:attribute name="name">
            <dia:string>#Node#</dia:string>
          </dia:attribute>
          <dia:attribute name="stereotype">
            <dia:string>##</dia:string>
          </dia:attribute>
          <dia:attribute name="type">
            <dia:string>##</dia:string>
          </dia:attribute>
          <dia:attribute name="visibility">
            <dia:enum val="0"/>
          </dia:attribute>
          <dia:attribute name="comment">
            <dia:string>##</dia:string>
          </dia:attribute>
          <dia:attribute name="abstract">
            <dia:boolean val="false"/>
          </dia:attribute>
          <dia:attribute name="inheritance_type">
            <dia:enum val="2"/>
          </dia:attribute>
          <dia:attribute name="query">
            <dia:boolean val="false"/>
          </dia:attribute>
          <dia:attribute name="class_scope">
            <dia:boolean val="false"/>
          </dia:attribute>
          <dia:attribute name="parameters">
            <dia:composite type="umlparameter">
              <dia:attribute name="name">
                <dia:string>#&amp;value#</dia:string>
              </dia:attribute>
              <dia:attribute name="type">
                <dia:string>#const realNumber#</dia:string>
              </dia:attribute>
              <dia:attribute name="value">
                <dia:string>##</dia:string>
              </dia:attribute>
              <dia:attribute name="comment">
                <dia:string>##</dia:string>
              </dia:attribute>
              <dia:attribute name="kind">
                <dia:enum val="0"/>
              </dia:attribute>
            </dia:composite>
            <dia:composite type="umlparameter">
              <dia:attribute name="name">
                <dia:string>#&amp;depth#</dia:string>
              </dia:attribute>
              <dia:attribute name="type">
                <dia:string>#const unsigned1Byte#</dia:string>
              </dia:attribute>
              <dia:attribute name="value">
                <dia:string>##</dia:string>
              </dia:attribute>
              <dia:attribute name="comment">
                <dia:string>##</dia:string>
              </dia:attribute>
              <dia:attribute name="kind">
                <dia:enum val="0"/>
              </dia:attribute>
            </dia:composite>
            <dia:composite type="umlparameter">
              <dia:attribute name="name">
                <dia:string>#*parent#</dia:string>
              </dia:attribute>
              <dia:attribute name="type">
                <dia:string>#Node#</dia:string>
              </dia:attribute>
              <dia:attribute name="value">
                <dia:string>##</dia:string>
              </dia:attribute>
              <dia:attribute name="comment">
                <dia:string>##</dia:string>
              </dia:attribute>
              <dia:attribute name="kind">
                <dia:enum val="0"/>
              </dia:attribute>
            </dia:composite>
          </dia:attribute>
        </dia:composite>
        <dia:composite type="umloperation">
          <dia:attribute name="name">
            <dia:string>#destroy#</dia:string>
          </dia:attribute>
          <dia:attribute name="stereotype">
            <dia:string>##</dia:string>
          </dia:attribute>
          <dia:attribute name="type">
            <dia:string>##</dia:string>
          </dia:attribute>
          <dia:attribute name="visibility">
            <dia:enum val="1"/>
          </dia:attribute>
          <dia:attribute name="comment">
            <dia:string>##</dia:string>
          </dia:attribute>
          <dia:attribute name="abstract">
            <dia:boolean val="false"/>
          </dia:attribute>
          <dia:attribute name="inheritance_type">
            <dia:enum val="2"/>
          </dia:attribute>
          <dia:attribute name="query">
            <dia:boolean val="false"/>
          </dia:attribute>
          <dia:attribute name="class_scope">
            <dia:boolean val="false"/>
          </dia:attribute>
          <dia:attribute name="parameters"/>
        </dia:composite>
        <dia:composite type="umloperation">
          <dia:attribute name="name">
            <dia:string>#~Node#</dia:string>
          </dia:attribute>
          <dia:attribute name="stereotype">
            <dia:string>##</dia:string>
          </dia:attribute>
          <dia:attribute name="type">
            <dia:string>##</dia:string>
          </dia:attribute>
          <dia:attribute name="visibility">
            <dia:enum val="0"/>
          </dia:attribute>
          <dia:attribute name="comment">
            <dia:string>##</dia:string>
          </dia:attribute>
          <dia:attribute name="abstract">
            <dia:boolean val="false"/>
          </dia:attribute>
          <dia:attribute name="inheritance_type">
            <dia:enum val="2"/>
          </dia:attribute>
          <dia:attribute name="query">
            <dia:boolean val="false"/>
          </dia:attribute>
          <dia:attribute name="class_scope">
            <dia:boolean val="false"/>
          </dia:attribute>
          <dia:attribute name="parameters"/>
        </dia:composite>
      </dia:attribute>
      <dia:attribute name="template">
        <dia:boolean val="false"/>
      </dia:attribute>
      <dia:attribute name="templates"/>
    </dia:object>
  </dia:layer>
</dia:diagram>
