digraph dot {

  graph [
    layout=dot,
    //splines="",
    rankdir=LR
    ranksep="0.00 equally"
    size="10cm!"
    //ratio=0.5
    //resolution="600dpi"
  ]

  node [
    shape=circle,
    style=filled,
    label=""
  ]

  subgraph cluster_l1 {
    label="Level 1"
    labelloc=c
    labeljust=l

    node [style=invisible]
      //n11 n12 n13
      n12
    node [style=filled,fillcolor="#ff3333",shape=doublecircle]
      n14 n15 n16
    node [style=invisible]
      //n17 n18 n19
      n18
    edge [color=grey]
      n15 -> {n14 n16}
    //edge [style=invis]
    //  n12 -> {n11 n13}
    //  n18 -> {n17 n19}
  }

  subgraph cluster_l2 {
    label="Level 2"
    labelloc=c
    labeljust=l

    node [fillcolor="green",shape=circle]
      //n21 n22 n23
      n22
    node [fillcolor="green",shape=doublecircle]
      n24 n25 n26
    node [fillcolor="green",shape=circle]
      //n27 n28 n29
      n28
    edge [color=grey]
      //n22 -> {n21 n23}
      n25 -> {n24 n26}
      //n28 -> {n27 n29}
  }

  subgraph cluster_l3 {
    label="Level 3"
    labelloc=c
    labeljust=l

    node [fillcolor="#ff9900",shape=circle]
      //n31 n32 n33
      n32
    node [fillcolor="#ff9900",shape=doublecircle]
      n34 n35 n36 
    node [fillcolor="#ff9900",shape=circle]
      //n37 n38 n39
      n38
    edge [color=grey]
      //n32 -> {n31 n33}
      n35 -> {n34 n36}
      //n38 -> {n37 n39}
  }

  subgraph cluster_l4 {
    label="Level 4"
    labelloc=c
    labeljust=l

    node [fillcolor="#3366ff",shape=circle]
      //n41 n42 n43
      n42
    node [fillcolor="#3366ff",shape=doublecircle]
      n44 n45 n46
    node [fillcolor="#3366ff",shape=circle]
      //n47 n48 n49
      n48
    edge [color=grey]
      //n42 -> {n41 n43}
      n45 -> {n44 n46}
      //n48 -> {n47 n49}
  }

  subgraph cluster_set {
    label="Stars"
    labelloc=t
    labeljust=l

    node [fillcolor="#ff66ff",shape=Mdiamond]
      s1 s2 s3
    //edge [style=invis]
      //s3 -> {s1 s2}
  }

  // Level i -> Level i+1
  edge [
    color=black,
    //constraint=false
  ]
  // Level 1 -> Level 2
  n14 -> n22
  n15 -> n28
  n16 -> n25
  // Level 2 -> Level 3
  n24 -> n32
  n25 -> n38
  n26 -> n35
  // Level 3 -> Level 4
  n34 -> n42
  n35 -> n48
  n36 -> n45

  // Level n -> Set stars
  edge [
    color=red,
    //constraint=false
  ]
  n44 -> s3
  n45 -> s1
  n46 -> s2

}
